<?xml version="1.0" encoding="utf-8"?>
<!-- Generator: Adobe Illustrator 23.1.1, SVG Export Plug-In . SVG Version: 6.00 Build 0)  -->
<svg version="1.1" id="Layer_1" xmlns="http://www.w3.org/2000/svg" xmlns:xlink="http://www.w3.org/1999/xlink" x="0px" y="0px"
	 viewBox="0 0 96 96" style="enable-background:new 0 0 96 96;" xml:space="preserve">
<style type="text/css">
	.st0{fill:#FF0000;}
</style>
<path d="M48,4.7C24.2,4.7,4.7,24.1,4.7,47.9S24.2,91.2,48,91.2c4.9,0,9.6-0.8,14-2.3c2.8,1.5,6,2.3,9.3,2.3c11,0,20-9,20-20
	c0-3.4-0.8-6.5-2.3-9.3c1.5-4.4,2.3-9.1,2.3-14C91.2,24.1,71.8,4.7,48,4.7z M89.7,71.2c0,10.2-8.3,18.5-18.5,18.5
	c-2.6,0-5.1-0.6-7.4-1.5c-0.6-0.3-1.2-0.6-1.8-0.9c-5.5-3.2-9.3-9.2-9.3-16c0-10.2,8.3-18.5,18.5-18.5c6.8,0,12.8,3.8,16,9.3
	c0.3,0.6,0.6,1.2,0.9,1.8C89.2,66.1,89.7,68.6,89.7,71.2z M87.9,60.2c-3.6-5.4-9.7-8.9-16.6-8.9c-11,0-20,9-20,20
	c0,6.9,3.6,13.1,8.9,16.6c-3.6,1.1-7.5,1.7-11.5,1.8v-7.5h-1.5v7.5c-22.4-0.4-40.6-18.6-41-41h7.5v-1.5H6.3
	c0.4-22.4,18.6-40.6,41-41v7.5h1.5V6.2c22.4,0.4,40.6,18.6,41,41h-7.5v1.5h7.5C89.7,52.7,89,56.5,87.9,60.2z"/>
<polygon class="st0" points="48.7,21.4 47.2,21.4 47.2,48.7 62.3,48.7 62.3,47.2 48.7,47.2 "/>
<path class="st0" d="M67,61.5c1-0.6,2.3-0.9,3.8-0.9c3,0,6.2,1.4,6.2,3.6h1.5c0-3-3.2-4.7-6.5-5v-3.2h-1.5v3.2
	c-1.7,0-3.2,0.4-4.3,1.1c-1.5,0.9-2.2,2.3-2.2,3.9c0,7.3,0.2,7.8,6.7,7.8h1.1c2.7,0,4.1,0,4.6,0.6c0.5,0.6,0.6,2.4,0.6,5.3
	c0,0.1,0,0.3,0,0.4c0,1.1-0.5,2-1.5,2.7c-0.8,0.5-1.9,0.8-3.2,0.9c-0.2,0-0.4,0-0.6,0c-3,0-6.2-1.4-6.2-3.6H64c0,2.9,3,4.6,6.2,5
	c0.1,0,0.2,0,0.3,0v1.5v1.7H72v-2.7v-0.5c0.3,0,0.6,0,0.8,0c1.3-0.1,2.5-0.5,3.5-1.1c1.4-0.9,2.1-2.1,2.2-3.7c0-0.1,0-0.2,0-0.2
	c0-0.7,0-1.3,0-1.9c-0.1-5.4-0.8-5.9-6.7-5.9h-1.1c-2.7,0-4.1,0-4.6-0.6c-0.6-0.7-0.6-2.6-0.6-5.7C65.5,63,66,62.1,67,61.5z"/>
</svg>
