<svg width="65" height="65" viewBox="0 0 65 65" fill="none" xmlns="http://www.w3.org/2000/svg">
<mask id="mask0" mask-type="alpha" maskUnits="userSpaceOnUse" x="13" y="13" width="39" height="39">
<path d="M33.8542 13.542V28.4378H37.9167V36.5628H33.8542V51.4587H31.1458V36.5628H27.0833V28.4378H31.1458V13.542H33.8542ZM47.3958 13.542V43.3337H51.4583V51.4587H40.625V43.3337H44.6875V13.542H47.3958ZM24.375 13.542V21.667H20.3125V51.4587H17.6042V21.667H13.5417V13.542H24.375ZM48.75 46.042H43.3333V48.7503H48.75V46.042ZM35.2083 31.1462H29.7917V33.8545H35.2083V31.1462ZM21.6667 16.2503H16.25V18.9587H21.6667V16.2503Z" fill="white"/>
</mask>
<g mask="url(#mask0)">
<path d="M65 0H0V65H65V0Z" fill="black"/>
</g>
</svg>
