<svg width="65" height="65" viewBox="0 0 65 65" fill="none" xmlns="http://www.w3.org/2000/svg">
<mask id="mask0" mask-type="alpha" maskUnits="userSpaceOnUse" x="16" y="13" width="36" height="42">
<path d="M42.5208 13.542H16.25V54.167H51.4583V22.4795L42.5208 13.542ZM43.3333 18.1462L46.8542 21.667H43.3333V18.1462ZM48.75 51.4587H18.9583V16.2503H40.625V24.3753H48.75V51.4587ZM25.9289 30.157V28.4378H27.7869V30.157H25.9289ZM27.7869 31.1091V37.913C27.7869 38.8079 27.7285 39.4393 27.6116 39.8074C27.4948 40.1755 27.27 40.4631 26.9372 40.6703C26.6044 40.8775 26.1801 40.9811 25.6644 40.9811C25.4792 40.9811 25.2798 40.9645 25.066 40.9315C24.8522 40.8984 24.6219 40.8488 24.375 40.7827L24.699 39.1958C24.7872 39.2134 24.8698 39.2277 24.947 39.2388C25.0241 39.2498 25.0957 39.2553 25.1618 39.2553C25.3514 39.2553 25.5068 39.2145 25.628 39.133C25.7492 39.0514 25.8297 38.9533 25.8693 38.8387C25.909 38.7241 25.9289 38.3803 25.9289 37.8072V31.1091H27.7869ZM29.6779 31.1091H31.4103V32.1406C31.6351 31.788 31.9393 31.5015 32.3228 31.281C32.7063 31.0606 33.1317 30.9504 33.5989 30.9504C34.4144 30.9504 35.1065 31.27 35.6752 31.9092C36.2438 32.5484 36.5281 33.4388 36.5281 34.5805C36.5281 35.7531 36.2416 36.6644 35.6685 37.3146C35.0955 37.9648 34.4012 38.2899 33.5857 38.2899C33.1978 38.2899 32.8463 38.2128 32.5311 38.0585C32.2159 37.9042 31.8842 37.6397 31.536 37.265V40.8025H29.6779V31.1091ZM31.5161 34.5012C31.5161 35.2902 31.6726 35.8732 31.9856 36.2501C32.2986 36.627 32.6798 36.8154 33.1295 36.8154C33.5615 36.8154 33.9207 36.6424 34.2073 36.2964C34.4938 35.9503 34.637 35.3828 34.637 34.5937C34.637 33.8576 34.4894 33.311 34.194 32.9539C33.8987 32.5969 33.5328 32.4183 33.0964 32.4183C32.6424 32.4183 32.2655 32.5936 31.9657 32.944C31.666 33.2944 31.5161 33.8135 31.5161 34.5012ZM37.8307 38.5941L39.9532 38.8519C39.9885 39.0988 40.07 39.2685 40.1979 39.3611C40.3742 39.4933 40.6519 39.5594 41.031 39.5594C41.5159 39.5594 41.8795 39.4867 42.122 39.3412C42.2851 39.2443 42.4085 39.0878 42.4923 38.8718C42.5496 38.7175 42.5782 38.4332 42.5782 38.0188V36.9939C42.0228 37.7521 41.3219 38.1312 40.4756 38.1312C39.5322 38.1312 38.7851 37.7323 38.2341 36.9344C37.8021 36.3041 37.5861 35.5194 37.5861 34.5805C37.5861 33.4035 37.8693 32.5043 38.4357 31.8828C39.0022 31.2612 39.7064 30.9504 40.5483 30.9504C41.4167 30.9504 42.133 31.3317 42.6972 32.0943V31.1091H44.4362V37.4105C44.4362 38.2392 44.3679 38.8586 44.2313 39.2685C44.0946 39.6785 43.9029 40.0003 43.656 40.2339C43.4092 40.4675 43.0797 40.6504 42.6675 40.7827C42.2553 40.9149 41.7341 40.9811 41.1037 40.9811C39.9135 40.9811 39.0694 40.7772 38.5713 40.3694C38.0732 39.9617 37.8241 39.4448 37.8241 38.8189C37.8241 38.7572 37.8263 38.6822 37.8307 38.5941ZM39.4904 34.4747C39.4904 35.2197 39.6347 35.7652 39.9235 36.1112C40.2122 36.4573 40.5681 36.6303 40.9913 36.6303C41.4454 36.6303 41.8288 36.4528 42.1418 36.098C42.4548 35.7431 42.6113 35.2175 42.6113 34.521C42.6113 33.7937 42.4614 33.2537 42.1617 32.901C41.8619 32.5484 41.4828 32.372 41.0244 32.372C40.5792 32.372 40.2122 32.5451 39.9235 32.8911C39.6347 33.2371 39.4904 33.765 39.4904 34.4747Z" fill="white"/>
</mask>
<g mask="url(#mask0)">
<path d="M65 0H0V65H65V0Z" fill="black"/>
</g>
</svg>
