<svg width="66" height="66" viewBox="0 0 66 66" fill="none" xmlns="http://www.w3.org/2000/svg">
<mask id="mask0" mask-type="alpha" maskUnits="userSpaceOnUse" x="11" y="19" width="44" height="30">
<path d="M53.7109 19.25H48.4687C47.7568 19.25 47.1797 19.8272 47.1797 20.5391V21.8281H44.7058L44.2672 21.3895C42.8875 20.0099 41.0532 19.25 39.102 19.25H33.7119C32.2199 19.25 30.8171 19.831 29.7621 20.8861L28.8201 21.8281H18.8203V20.5391C18.8203 19.8272 18.2432 19.25 17.5312 19.25H12.2891C11.5772 19.25 11 19.8272 11 20.5391V42.8828C11 43.5947 11.5772 44.1719 12.2891 44.1719H17.5312C18.2432 44.1719 18.8203 43.5947 18.8203 42.8828V42.3514L21.8826 43.8182L22.6976 46.0573C23.0508 47.028 23.761 47.803 24.6972 48.2396C25.2172 48.482 25.7721 48.6039 26.3292 48.6039C26.7752 48.6039 27.2227 48.5257 27.6543 48.3687C28.5841 48.0302 29.3052 47.3697 29.7388 46.559C30.1929 46.7412 30.682 46.8386 31.1806 46.8385C31.6188 46.8385 32.0644 46.7634 32.4994 46.6051C33.4286 46.2669 34.1493 45.607 34.583 44.7972C35.0455 44.9833 35.5319 45.0769 36.0198 45.0769C36.4657 45.0769 36.9132 44.9987 37.3447 44.8416C38.2739 44.5033 38.9946 43.8436 39.4282 43.0336C39.8908 43.2198 40.377 43.3133 40.865 43.3133C41.3109 43.3133 41.7584 43.2351 42.1899 43.0781C43.1606 42.7248 43.9356 42.0146 44.3722 41.0784C44.425 40.9653 44.4717 40.8505 44.513 40.7344H47.1797V42.8828C47.1797 43.5947 47.7568 44.1719 48.4687 44.1719H53.7109C54.4228 44.1719 55 43.5947 55 42.8828V20.5391C55 19.8272 54.4228 19.25 53.7109 19.25ZM16.2422 41.5938H13.5781V21.8281H16.2422V41.5938ZM41.3083 40.6553C40.9847 40.7731 40.6346 40.7577 40.3226 40.6123C40.0106 40.4668 39.7739 40.2084 39.6562 39.8848L38.1119 35.6421C37.8683 34.9731 37.1286 34.628 36.4596 34.8716C35.7906 35.1152 35.4457 35.8548 35.6892 36.524L37.2334 40.7666C37.4766 41.4345 37.1309 42.1757 36.463 42.4189C36.1395 42.5367 35.7894 42.5214 35.4773 42.3759C35.1652 42.2304 34.9285 41.9721 34.8108 41.6484L33.2665 37.4057C33.0229 36.7367 32.2831 36.3919 31.6143 36.6352C30.9452 36.8788 30.6004 37.6185 30.8438 38.2876L32.388 42.5302C32.6312 43.1981 32.2855 43.9393 31.6176 44.1825C30.9498 44.4257 30.2086 44.0801 29.9654 43.412L28.4211 39.1693C28.1776 38.5003 27.4378 38.1554 26.7688 38.3989C26.0998 38.6424 25.755 39.3821 25.9984 40.0512L27.5427 44.2939C27.7858 44.9617 27.4402 45.7029 26.7723 45.9461C26.4487 46.0638 26.0986 46.0486 25.7866 45.9031C25.4745 45.7576 25.2378 45.4993 25.12 45.1755L24.1251 42.442C24.0097 42.125 23.7748 41.866 23.4706 41.7203L18.8203 39.4928V24.4063H26.242L25.5516 25.0966C24.8212 25.827 24.419 26.7981 24.419 27.831C24.419 28.8641 24.8212 29.8352 25.5517 30.5657C27.0595 32.0733 29.5129 32.0733 31.0207 30.5656L34.2243 27.3619C34.4678 27.1184 34.7916 26.9843 35.1358 26.9843H37.7045L42.0757 38.9943C42.0766 38.9973 42.0777 39.0002 42.0789 39.0033C42.0791 39.0041 42.0794 39.005 42.0796 39.0058C42.1255 39.1327 42.1479 39.276 42.1477 39.4442C42.1477 39.4763 42.15 39.5082 42.1523 39.5401C42.1408 39.6935 42.1028 39.8452 42.0358 39.9888C41.8902 40.3008 41.6318 40.5376 41.3083 40.6553ZM44.5138 38.1563C44.511 38.1479 44.5081 38.1398 44.505 38.1314C44.5038 38.1281 44.5026 38.1247 44.5014 38.1214L39.8183 25.2545C39.6329 24.7452 39.1488 24.4063 38.6069 24.4063H35.1356C34.1027 24.4063 33.1316 24.8085 32.4012 25.539L29.1975 28.7426C28.6949 29.2453 27.8771 29.2453 27.3744 28.7427C27.131 28.4992 26.9969 28.1754 26.9969 27.8311C26.9969 27.4869 27.131 27.1631 27.3744 26.9197L31.585 22.7092C32.1531 22.1411 32.9084 21.8282 33.7118 21.8282H39.1019C40.3644 21.8282 41.5514 22.3199 42.4441 23.2125L43.2603 24.0287C43.5021 24.2705 43.8299 24.4063 44.1718 24.4063H47.1796V38.1563H44.5138ZM52.4219 41.5938H49.7578V21.8281H52.4219V41.5938Z" fill="white"/>
</mask>
<g mask="url(#mask0)">
<path d="M66 0H0V66H66V0Z" fill="black"/>
</g>
</svg>
