<?xml version="1.0" encoding="utf-8"?>
<!-- Generator: Adobe Illustrator 23.1.1, SVG Export Plug-In . SVG Version: 6.00 Build 0)  -->
<svg version="1.1" id="Layer_1" xmlns="http://www.w3.org/2000/svg" xmlns:xlink="http://www.w3.org/1999/xlink" x="0px" y="0px"
	 viewBox="0 0 455.9 99.8" style="enable-background:new 0 0 455.9 99.8;" xml:space="preserve">
<style type="text/css">
	.st0{fill:#FF0000;}
</style>
<g>
	<path d="M16.9,17h47.9v11.7H31.1v13.6h27.8V54H31.1v17.4h33.7v11.7H16.9V17z"/>
	<path d="M90.5,50.1L68.9,17h15.5l15.9,25.7L116.3,17h15.5l-21.6,33.1l22.4,33H116L100.6,58L84.1,83.1h-16L90.5,50.1z"/>
	<path d="M135.9,75.8l18.5-17.5c8.7-8.3,14.2-15.6,14.2-23c0-5.7-3-8.5-9-8.5c-5.3,0-9.5,2.6-9.5,7.5h-14.2
		c0-7.5,5.4-18.8,23.7-18.8c15,0,23.1,8.8,23.1,19.8c0,11.4-10.4,22.8-19.7,31.6l-4.7,4.4h25.4v11.7h-47.9V75.8z"/>
	<path class="st0" d="M198.9,67.4c4.8,0,8.6,3.4,8.6,8.6c0,5.4-3.8,8.6-8.6,8.6s-8.6-3.2-8.6-8.6C190.3,70.8,194.1,67.4,198.9,67.4z
		"/>
	<path d="M212,34.3h7.8V22.6h13.7v11.7h12v11.2h-12v16.9c0,6.2,1.9,8.9,4.6,8.9h7.4v11.8h-8.7c-11.6,0-17-7-17-17.8V45.5H212V34.3z"
		/>
	<path d="M274,32.8c14.5,0,24.2,10.5,24.2,24.3v4h-34.9c0.1,6.9,4.5,12.2,11.2,12.2c4.6,0,6.4-1.4,7.7-3c1-1.3,1.4-2.8,1.4-3.3h14.2
		c0,2.3-1.1,6.1-3.5,9.1c-3.7,4.7-9.7,8.5-19.7,8.5c-14.5,0-25.7-10.2-25.7-26.2C248.9,42.4,259.5,32.8,274,32.8z M284.3,52.8
		c-0.1-5.4-3.6-9.8-10.4-9.8s-10.5,4.4-10.6,9.8H284.3z"/>
	<path d="M325.9,32.8c6.9,0,11.8,3.5,15,8.7l2.7-7.2H354v48.8h-10.3l-3-7.1c-3.1,5.1-8,8.6-14.7,8.6c-13.3,0-22.5-11.1-22.5-26.2
		C303.5,43.4,312.7,32.8,325.9,32.8z M329,73.4c6,0,10.5-4.9,10.8-14.2v-1.5c-0.3-9.3-4.9-13.7-10.8-13.7c-6.2,0-11.2,4.6-11.2,14.4
		S322.8,73.4,329,73.4z"/>
	<path d="M365.1,34.3h9.8l2.2,6c2.5-4.2,6.6-7.4,13.4-7.4c7.6,0,11.4,4.7,12.9,12.2c2.1-6.2,7-12.2,17.4-12.2
		c11.5,0,18.6,6.8,18.6,22v28.3h-13.7V55.8v-1c0-7.6-2.2-10.7-7.7-10.7c-5.2,0-8.7,5.6-8.9,11.4v27.6h-13.7V54.8
		c0-7.5-2.3-10.7-7.7-10.7c-5.2,0-8.7,5.6-8.9,11.4v27.6h-13.7V34.3z"/>
</g>
</svg>
