<?xml version="1.0" encoding="utf-8"?>
<!-- Generator: Adobe Illustrator 23.1.1, SVG Export Plug-In . SVG Version: 6.00 Build 0)  -->
<svg version="1.1" id="Layer_1" xmlns="http://www.w3.org/2000/svg" xmlns:xlink="http://www.w3.org/1999/xlink" x="0px" y="0px"
	 viewBox="0 0 96 96" style="enable-background:new 0 0 96 96;" xml:space="preserve">
<style type="text/css">
	.st0{fill:#FF0000;}
</style>
<path d="M78.9,65.2c-5.5,0-10.2,3.5-12,8.4l-11.7-3.4c0.7-2.3,1-4.7,1-7.2c0-7.7-3.4-14.6-8.8-19.3l11.9-9.4c3.1,3,7.2,4.6,11.5,4.6
	c5,0,9.6-2.1,12.7-5.9l0,0l0.6-0.7l0.4-0.5l0,0c1.9-2.8,3-6.1,3-9.5c0-9.2-7.5-16.6-16.6-16.6c-9.2,0-16.6,7.5-16.6,16.6
	c0,3.4,1,6.7,3,9.5l0,0l0.4,0.5l0.6,0.7l0,0c0.1,0.1,0.1,0.1,0.2,0.2l-12,9.6c-4.2-3.2-9.4-5.2-15.1-5.3l-2.6-7.5
	c2-0.6,3.9-1.7,5.3-3.4l0,0l0.6-0.7l0.4-0.5l0,0c1.2-1.9,1.9-4,1.9-6.3c0-6.2-5-11.3-11.3-11.3c-6.2,0-11.3,5-11.3,11.3
	c0,2.3,0.7,4.4,1.9,6.3l0,0l0.4,0.5c0,0,0,0,0,0l0.6,0.7l0,0c2.1,2.4,5.1,3.8,8.4,3.8c0.5,0,1.1,0,1.6-0.1l2.5,7.2
	C16,38,5.1,49.2,5.1,63c0,5.6,1.8,10.9,5.1,15.3c4.9,6.5,12.3,10.2,20.5,10.2s15.6-3.7,20.5-10.2c1.6-2.1,2.8-4.3,3.6-6.7L66.5,75
	c-0.2,0.9-0.3,1.9-0.3,2.8c0,2.6,0.8,5,2.2,7.1l0,0l0.4,0.5c0,0,0,0,0,0l0.6,0.7l0,0c2.4,2.8,5.8,4.4,9.6,4.4c3.7,0,7.2-1.6,9.6-4.4
	l0,0l0.6-0.7l0.4-0.5l0,0c1.4-2.1,2.2-4.6,2.2-7.1C91.6,70.9,85.9,65.2,78.9,65.2z M70.8,37.4c-4.6,0-8.8-2-11.7-5.5c0,0,0,0,0,0
	c0.1-0.1,0.1-0.1,0.2-0.2c0.1-0.1,0.2-0.2,0.4-0.3c0.1-0.1,0.2-0.1,0.3-0.2c0.1-0.1,0.3-0.2,0.4-0.3c0.1-0.1,0.2-0.1,0.3-0.2
	c0.1-0.1,0.3-0.2,0.4-0.3c0.1-0.1,0.2-0.1,0.3-0.2c0.1-0.1,0.3-0.2,0.5-0.2c0.1-0.1,0.2-0.1,0.3-0.2c0.2-0.1,0.3-0.2,0.5-0.2
	c0.1-0.1,0.2-0.1,0.4-0.2c0.2-0.1,0.3-0.1,0.5-0.2c0.1-0.1,0.2-0.1,0.4-0.2c0.2-0.1,0.3-0.1,0.5-0.2c0.1,0,0.2-0.1,0.3-0.1
	c0.2-0.1,0.3-0.1,0.5-0.2c0.1,0,0.2-0.1,0.3-0.1c0.1-0.1,0.3-0.1,0.4-0.2c0.1,0,0.2-0.1,0.3-0.1c0.1,0,0.3-0.1,0.4-0.1
	c0.1,0,0.2-0.1,0.3-0.1c0.1,0,0.3-0.1,0.4-0.1c0.1,0,0.2-0.1,0.2-0.1c0.1,0,0.2-0.1,0.3-0.1c0.1,0,0.1,0,0.2-0.1
	c0.1,0,0.2-0.1,0.3-0.1c0,0,0.1,0,0.1,0c0.1,0,0.1,0,0.2-0.1c0,0,0.1,0,0.1,0c0.1,0,0.1,0,0.1,0l0.5-0.2v-3.1l-0.5-0.2
	c-2.6-1-4.3-3.8-4.3-6.9c0-4,2.8-7.3,6.3-7.3c3.5,0,6.3,3.3,6.3,7.3c0,3.1-1.7,5.9-4.3,6.9l-0.5,0.2v3.1l0.5,0.2c0,0,0.1,0,0.2,0
	c0.1,0,0.1,0,0.2,0.1c0.4,0.1,1.2,0.4,2.1,0.7c0.2,0.1,0.4,0.1,0.5,0.2c2.1,0.8,4.6,1.9,6.2,3.1c0,0,0,0,0,0
	c0.2,0.1,0.3,0.2,0.4,0.4C79.7,35.4,75.4,37.4,70.8,37.4z M58.2,30.6c-1.7-2.5-2.5-5.4-2.5-8.4c0-8.3,6.8-15.1,15.1-15.1
	c8.3,0,15.1,6.8,15.1,15.1c0,3-0.9,5.9-2.5,8.4c-0.1,0-0.1-0.1-0.2-0.1c-0.1-0.1-0.2-0.1-0.2-0.2c-0.1-0.1-0.2-0.2-0.3-0.2
	c-0.1-0.1-0.2-0.1-0.3-0.2c-0.1-0.1-0.2-0.2-0.4-0.2c-0.1-0.1-0.2-0.1-0.3-0.2c-0.1-0.1-0.3-0.2-0.4-0.2c-0.1-0.1-0.2-0.1-0.3-0.2
	c-0.2-0.1-0.5-0.2-0.7-0.4c-0.1,0-0.2-0.1-0.3-0.1c-0.2-0.1-0.3-0.1-0.5-0.2c-0.1-0.1-0.2-0.1-0.3-0.2c-0.1-0.1-0.3-0.1-0.4-0.2
	c-0.1-0.1-0.2-0.1-0.4-0.2c-0.1-0.1-0.2-0.1-0.4-0.2c-0.1,0-0.2-0.1-0.4-0.1c-0.1,0-0.2-0.1-0.4-0.1c-0.1,0-0.2-0.1-0.3-0.1
	c-0.1,0-0.2-0.1-0.4-0.1c-0.1,0-0.2-0.1-0.3-0.1c-0.1,0-0.2-0.1-0.4-0.1c-0.1,0-0.2-0.1-0.3-0.1c-0.1,0-0.2-0.1-0.3-0.1
	c-0.1,0-0.2-0.1-0.3-0.1c-0.1,0-0.2-0.1-0.3-0.1c-0.1,0-0.1,0-0.2-0.1c-0.1,0-0.2-0.1-0.3-0.1c-0.1,0-0.1,0-0.2-0.1
	c-0.1,0-0.3-0.1-0.4-0.1v-1c2.9-1.4,4.8-4.5,4.8-8.1c0-4.8-3.5-8.8-7.8-8.8c-4.3,0-7.8,3.9-7.8,8.8c0,3.5,1.9,6.7,4.8,8.1v1
	c-0.1,0-0.2,0.1-0.4,0.1c-0.1,0-0.2,0.1-0.3,0.1c0,0-0.1,0-0.1,0c-0.1,0-0.2,0.1-0.4,0.1c-0.1,0-0.1,0-0.2,0.1
	c-0.1,0-0.2,0.1-0.4,0.1c-0.1,0-0.1,0-0.2,0.1c-0.1,0-0.3,0.1-0.4,0.1c-0.1,0-0.2,0.1-0.3,0.1c-0.1,0-0.3,0.1-0.4,0.1
	c-0.1,0-0.2,0.1-0.3,0.1c-0.1,0.1-0.3,0.1-0.4,0.2c-0.1,0-0.2,0.1-0.3,0.1c-0.1,0.1-0.3,0.1-0.4,0.2c-0.1,0-0.2,0.1-0.3,0.1
	c-0.1,0.1-0.3,0.1-0.4,0.2c-0.1,0.1-0.2,0.1-0.3,0.2c-0.1,0.1-0.3,0.1-0.4,0.2c-0.1,0.1-0.3,0.1-0.4,0.2c-0.1,0.1-0.2,0.1-0.4,0.2
	c-0.2,0.1-0.4,0.2-0.6,0.3c-0.1,0-0.2,0.1-0.3,0.1c-0.1,0.1-0.3,0.2-0.4,0.2c-0.1,0.1-0.2,0.1-0.3,0.2c-0.1,0.1-0.3,0.2-0.4,0.2
	C59.2,29.9,59.1,30,59,30c-0.1,0.1-0.2,0.2-0.3,0.2c-0.1,0.1-0.2,0.1-0.2,0.2C58.4,30.5,58.3,30.6,58.2,30.6z M17.3,24.2
	c-1-1.5-1.5-3.3-1.5-5.2c0-5.4,4.4-9.8,9.8-9.8c5.4,0,9.8,4.4,9.8,9.8c0,1.8-0.5,3.6-1.5,5.2c-0.2-0.2-0.5-0.3-0.7-0.5
	c-0.1,0-0.1-0.1-0.2-0.1c-0.2-0.1-0.4-0.3-0.7-0.4c-0.1-0.1-0.2-0.1-0.3-0.2c-0.2-0.1-0.4-0.2-0.6-0.3c-0.1-0.1-0.2-0.1-0.4-0.2
	c-0.2-0.1-0.4-0.2-0.6-0.2c-0.1,0-0.2-0.1-0.4-0.1c-0.2-0.1-0.4-0.1-0.6-0.2c-0.1,0-0.2-0.1-0.3-0.1c-0.2-0.1-0.4-0.1-0.5-0.2
	c-0.1,0-0.1-0.1-0.2-0.1c-0.2-0.1-0.4-0.1-0.6-0.2v-0.3c1.9-1,3.1-3.1,3.1-5.5c0-3.3-2.4-6.1-5.4-6.1c-3,0-5.4,2.7-5.4,6.1
	c0,2.4,1.2,4.5,3.1,5.5v0.3c-0.2,0.1-0.4,0.1-0.6,0.2c-0.1,0-0.2,0.1-0.2,0.1c-0.2,0.1-0.3,0.1-0.5,0.2c-0.1,0-0.2,0.1-0.3,0.1
	c-0.2,0.1-0.3,0.1-0.5,0.2c-0.1,0-0.2,0.1-0.4,0.2c-0.2,0.1-0.4,0.1-0.5,0.2c-0.1,0.1-0.3,0.1-0.4,0.2c-0.2,0.1-0.4,0.2-0.6,0.3
	c-0.1,0.1-0.2,0.1-0.4,0.2c-0.2,0.1-0.4,0.2-0.6,0.4c-0.1,0-0.2,0.1-0.2,0.1C17.7,23.9,17.5,24.1,17.3,24.2z M25.6,28.8
	c-2.9,0-5.5-1.2-7.4-3.4c0,0,0,0,0,0c0.2-0.1,0.4-0.3,0.6-0.4c0,0,0.1,0,0.1-0.1c0.2-0.1,0.4-0.3,0.7-0.4c0,0,0.1,0,0.1-0.1
	c0.2-0.1,0.5-0.2,0.8-0.4c0,0,0,0,0.1,0c0.2-0.1,0.5-0.2,0.7-0.3c0,0,0.1,0,0.1-0.1c0.2-0.1,0.5-0.2,0.7-0.3c0.1,0,0.1,0,0.2-0.1
	c0.2-0.1,0.4-0.2,0.7-0.2c0.1,0,0.1,0,0.2-0.1c0.2-0.1,0.4-0.1,0.6-0.2c0,0,0.1,0,0.1,0c0.2-0.1,0.4-0.1,0.5-0.1l0.5-0.2v-2.4
	l-0.5-0.2c-1.6-0.6-2.7-2.4-2.7-4.3c0-2.5,1.7-4.6,3.9-4.6s3.9,2,3.9,4.6c0,2-1.1,3.7-2.7,4.3l-0.5,0.2v2.4l0.5,0.2
	c0.1,0,0.3,0.1,0.5,0.1c0,0,0.1,0,0.1,0c0.2,0.1,0.4,0.1,0.6,0.2c0.1,0,0.1,0,0.2,0.1c0.2,0.1,0.4,0.1,0.7,0.2c0.1,0,0.1,0,0.2,0.1
	c0.2,0.1,0.5,0.2,0.7,0.3c0,0,0.1,0,0.1,0.1c0.2,0.1,0.5,0.2,0.7,0.3c0,0,0,0,0.1,0c0.3,0.1,0.5,0.2,0.7,0.4c0,0,0.1,0,0.1,0.1
	c0.2,0.1,0.5,0.2,0.7,0.4c0,0,0.1,0,0.1,0.1c0.2,0.1,0.4,0.3,0.6,0.4c0,0,0,0,0,0C31.1,27.6,28.4,28.8,25.6,28.8z M49.9,77.4
	C45.3,83.5,38.3,87,30.7,87S16,83.5,11.4,77.4C8.2,73.2,6.6,68.2,6.6,63c0-13.3,10.8-24.1,24.1-24.1c13.3,0,24.1,10.8,24.1,24.1
	C54.7,68.2,53.1,73.2,49.9,77.4z M78.9,89.1c-3.3,0-6.4-1.4-8.6-4c0,0,0,0,0.1,0c0.2-0.2,0.4-0.3,0.6-0.5c0,0,0.1,0,0.1-0.1
	c0.3-0.2,0.5-0.3,0.8-0.5c0,0,0,0,0,0c0.3-0.2,0.6-0.3,0.9-0.5c0,0,0,0,0,0c0.3-0.1,0.6-0.3,0.9-0.4c0,0,0.1,0,0.1,0
	c0.3-0.1,0.6-0.2,0.9-0.4c0,0,0.1,0,0.1,0c0.3-0.1,0.6-0.2,0.8-0.3c0,0,0.1,0,0.1,0c0.3-0.1,0.5-0.2,0.7-0.2c0,0,0,0,0.1,0
	c0.2-0.1,0.4-0.1,0.6-0.2l0.5-0.2v-2.6l-0.5-0.2c-1.9-0.7-3.1-2.7-3.1-5c0-2.9,2-5.3,4.5-5.3s4.5,2.4,4.5,5.3c0,2.3-1.2,4.3-3.1,5
	l-0.5,0.2v2.6l0.5,0.2c0.2,0,0.4,0.1,0.6,0.2c0,0,0.1,0,0.1,0c0.2,0.1,0.4,0.1,0.7,0.2c0.1,0,0.1,0,0.2,0.1c0.3,0.1,0.5,0.2,0.8,0.3
	c0.1,0,0.1,0,0.2,0.1c0.3,0.1,0.6,0.2,0.9,0.3c0,0,0.1,0,0.1,0.1c0.3,0.1,0.6,0.3,0.9,0.4c0,0,0,0,0.1,0c0.3,0.1,0.6,0.3,0.9,0.4
	c0,0,0,0,0,0c0.3,0.2,0.5,0.3,0.8,0.5c0,0,0.1,0,0.1,0.1c0.2,0.2,0.4,0.3,0.6,0.5c0,0,0,0,0.1,0.1C85.3,87.6,82.2,89.1,78.9,89.1z
	 M88.3,83.9C88.3,83.9,88.3,83.9,88.3,83.9c-0.2-0.2-0.5-0.4-0.7-0.5c0,0-0.1-0.1-0.1-0.1c-0.3-0.2-0.5-0.3-0.8-0.5
	c-0.1,0-0.1-0.1-0.2-0.1c-0.3-0.2-0.6-0.3-0.9-0.4c0,0-0.1,0-0.1-0.1c-0.3-0.1-0.6-0.3-0.9-0.4c0,0,0,0,0,0
	c-0.3-0.1-0.6-0.2-0.9-0.4c0,0-0.1,0-0.1,0c-0.3-0.1-0.5-0.2-0.8-0.3c0,0-0.1,0-0.1,0c-0.2-0.1-0.5-0.2-0.7-0.2c0,0,0,0-0.1,0
	c-0.2-0.1-0.4-0.1-0.6-0.2v-0.5c2.2-1.1,3.6-3.5,3.6-6.2c0-3.7-2.7-6.8-6-6.8s-6,3-6,6.8c0,2.7,1.4,5.1,3.6,6.2v0.5
	c-0.2,0.1-0.4,0.1-0.6,0.2c0,0,0,0-0.1,0c-0.2,0.1-0.5,0.2-0.7,0.2c0,0-0.1,0-0.1,0c-0.3,0.1-0.5,0.2-0.8,0.3c0,0-0.1,0-0.1,0
	c-0.6,0.2-1.2,0.5-1.9,0.8c0,0-0.1,0-0.1,0c-0.3,0.1-0.6,0.3-0.9,0.4c0,0-0.1,0-0.1,0.1c-0.3,0.2-0.6,0.3-0.8,0.5
	c0,0-0.1,0.1-0.1,0.1c-0.3,0.2-0.5,0.3-0.7,0.5c0,0,0,0,0,0c-1.2-1.8-1.8-3.9-1.8-6c0-6.2,5-11.2,11.2-11.2c6.2,0,11.2,5,11.2,11.2
	C90.1,80,89.5,82.1,88.3,83.9z"/>
<path d="M38.5,67.7c0-2-4-3.5-5.9-4.1v0c1.5-0.8,2.5-2.6,2.5-4.5c0-2.7-2-5-4.5-5c-2.5,0-4.5,2.2-4.5,5c0,1.9,1,3.7,2.5,4.5v0
	c-1.9,0.6-5.9,2.1-5.9,4.1v4.1h15.6L38.5,67.7L38.5,67.7z M37,70.3H24.3v-2.6c0-0.7,2.6-2,5.3-2.8l0.5-0.2v-2.2l-0.5-0.2
	c-1.2-0.5-2-1.8-2-3.3c0-1.9,1.3-3.5,3-3.5c1.6,0,3,1.6,3,3.5c0,1.5-0.8,2.8-2,3.3l-0.5,0.2v2.2l0.5,0.2c2.7,0.8,5.3,2.1,5.3,2.8
	V70.3z"/>
<path class="st0" d="M30.7,42.3C19.3,42.3,10,51.6,10,63s9.2,20.6,20.6,20.6c11.4,0,20.6-9.2,20.6-20.6S42,42.3,30.7,42.3z
	 M29.9,43.9v3c-3.8,0.2-7.3,1.6-10.1,4.2l0,0l-1.1,1.1l0,0c-2.5,2.8-4,6.3-4.2,10.1h-3C12,52.3,20,44.3,29.9,43.9z M29.9,82
	C20,81.7,12,73.7,11.6,63.7h3c0.2,3.8,1.6,7.3,4.2,10.1l0,0l1.1,1.1l0,0c2.8,2.5,6.3,4,10.1,4.2V82z M29.9,75.6v1.9
	c-3.4-0.2-6.5-1.5-9-3.7l1-1l-1.1-1.1l-1,1c-2.3-2.5-3.6-5.7-3.7-9H18v-1.5h-1.9c0.2-3.4,1.5-6.5,3.7-9l1,1l1.1-1.1l-1-1
	c2.5-2.3,5.7-3.6,9-3.7v1.9h1.5v-1.9c3.4,0.2,6.5,1.5,9,3.7l-1,1l1.1,1.1l1-1c2.3,2.5,3.6,5.7,3.7,9h-1.9v1.5h1.9
	c-0.2,3.4-1.5,6.5-3.7,9l-1-1l-1.1,1.1l1,1c-2.5,2.3-5.7,3.6-9,3.7v-1.9H29.9z M31.4,82v-3c3.8-0.2,7.3-1.6,10.1-4.2l0,0l1.1-1.1
	l0,0c2.5-2.8,4-6.3,4.2-10.1h3C49.4,73.7,41.4,81.7,31.4,82z M46.8,62.2c-0.2-3.8-1.6-7.3-4.2-10.1l0,0L41.5,51l0,0
	c-2.8-2.5-6.3-4-10.1-4.2v-3c9.9,0.4,17.9,8.4,18.3,18.3C49.7,62.2,46.8,62.2,46.8,62.2z"/>
</svg>
