<svg width="10" height="10" viewBox="0 0 10 10" fill="none" xmlns="http://www.w3.org/2000/svg">
<path d="M9.96 0.31C9.90926 0.187825 9.81218 0.0907374 9.69 0.04C9.62989 0.0143795 9.56534 0.000789994 9.5 0H6.5C6.36739 0 6.24022 0.0526784 6.14645 0.146447C6.05268 0.240215 6 0.367392 6 0.5C6 0.632608 6.05268 0.759785 6.14645 0.853554C6.24022 0.947322 6.36739 1 6.5 1H8.295L1 8.295V6.5C1 6.36739 0.947322 6.24022 0.853554 6.14645C0.759785 6.05268 0.632608 6 0.5 6C0.367392 6 0.240215 6.05268 0.146447 6.14645C0.0526784 6.24022 0 6.36739 0 6.5V9.5C0.000789994 9.56534 0.0143795 9.62989 0.04 9.69C0.0907374 9.81218 0.187825 9.90926 0.31 9.96C0.370111 9.98562 0.434661 9.99921 0.5 10H3.5C3.63261 10 3.75979 9.94732 3.85355 9.85355C3.94732 9.75979 4 9.63261 4 9.5C4 9.36739 3.94732 9.24022 3.85355 9.14645C3.75979 9.05268 3.63261 9 3.5 9H1.705L9 1.705V3.5C9 3.63261 9.05268 3.75979 9.14645 3.85355C9.24022 3.94732 9.36739 4 9.5 4C9.63261 4 9.75979 3.94732 9.85355 3.85355C9.94732 3.75979 10 3.63261 10 3.5V0.5C9.99921 0.434661 9.98562 0.370111 9.96 0.31Z" fill="white"/>
</svg>
