<svg width="135" height="168" viewBox="0 0 135 168" fill="none" xmlns="http://www.w3.org/2000/svg">
<g clip-path="url(#clip0)">
<g opacity="0.8">
<path opacity="0.8" d="M133.234 2.07544H126.789V2.69416H133.234V2.07544Z" fill="#FF0000"/>
<path opacity="0.8" d="M130.241 -1.94629H129.781V6.71576H130.241V-1.94629Z" fill="#FF0000"/>
</g>
<g opacity="0.8">
<path opacity="0.8" d="M91.1118 2.07544H84.667V2.69416H91.1118V2.07544Z" fill="#FF0000"/>
<path opacity="0.8" d="M88.1195 -1.94629H87.6592V6.71576H88.1195V-1.94629Z" fill="#FF0000"/>
</g>
<g opacity="0.8">
<path opacity="0.8" d="M48.8753 2.07544H42.4304V2.69416H48.8753V2.07544Z" fill="#FF0000"/>
<path opacity="0.8" d="M45.8832 -1.94629H45.4229V6.71576H45.8832V-1.94629Z" fill="#FF0000"/>
</g>
<g opacity="0.8">
<path opacity="0.8" d="M6.75344 2.07544H0.308594V2.69416H6.75344V2.07544Z" fill="#FF0000"/>
<path opacity="0.8" d="M3.76113 -1.94629H3.30078V6.71576H3.76113V-1.94629Z" fill="#FF0000"/>
</g>
<g opacity="0.8">
<path opacity="0.8" d="M133.234 50.1475H126.789V50.7662H133.234V50.1475Z" fill="#FF0000"/>
<path opacity="0.8" d="M130.241 46.1257H129.781V54.7878H130.241V46.1257Z" fill="#FF0000"/>
</g>
<g opacity="0.8">
<path opacity="0.8" d="M91.1118 50.1475H84.667V50.7662H91.1118V50.1475Z" fill="#FF0000"/>
<path opacity="0.8" d="M88.1195 46.1257H87.6592V54.7878H88.1195V46.1257Z" fill="#FF0000"/>
</g>
<g opacity="0.8">
<path opacity="0.8" d="M48.8753 50.1475H42.4304V50.7662H48.8753V50.1475Z" fill="#FF0000"/>
<path opacity="0.8" d="M45.8832 46.1257H45.4229V54.7878H45.8832V46.1257Z" fill="#FF0000"/>
</g>
<g opacity="0.8">
<path opacity="0.8" d="M6.75344 50.1475H0.308594V50.7662H6.75344V50.1475Z" fill="#FF0000"/>
<path opacity="0.8" d="M3.76113 46.1257H3.30078V54.7878H3.76113V46.1257Z" fill="#FF0000"/>
</g>
<g opacity="0.8">
<path opacity="0.8" d="M133.234 106.605H126.789V107.224H133.234V106.605Z" fill="#FF0000"/>
<path opacity="0.8" d="M130.241 102.584H129.781V111.246H130.241V102.584Z" fill="#FF0000"/>
</g>
<g opacity="0.8">
<path opacity="0.8" d="M91.1118 106.605H84.667V107.224H91.1118V106.605Z" fill="#FF0000"/>
<path opacity="0.8" d="M88.1195 102.584H87.6592V111.246H88.1195V102.584Z" fill="#FF0000"/>
</g>
<g opacity="0.8">
<path opacity="0.8" d="M48.8753 106.605H42.4304V107.224H48.8753V106.605Z" fill="#FF0000"/>
<path opacity="0.8" d="M45.8832 102.584H45.4229V111.246H45.8832V102.584Z" fill="#FF0000"/>
</g>
<g opacity="0.8">
<path opacity="0.8" d="M6.75344 106.605H0.308594V107.224H6.75344V106.605Z" fill="#FF0000"/>
<path opacity="0.8" d="M3.76113 102.584H3.30078V111.246H3.76113V102.584Z" fill="#FF0000"/>
</g>
<g opacity="0.8">
<path opacity="0.8" d="M133.234 163.218H126.789V163.837H133.234V163.218Z" fill="#FF0000"/>
<path opacity="0.8" d="M130.241 159.197H129.781V167.859H130.241V159.197Z" fill="#FF0000"/>
</g>
<g opacity="0.8">
<path opacity="0.8" d="M48.8753 163.218H42.4304V163.837H48.8753V163.218Z" fill="#FF0000"/>
<path opacity="0.8" d="M45.8832 159.197H45.4229V167.859H45.8832V159.197Z" fill="#FF0000"/>
</g>
<g opacity="0.8">
<path opacity="0.8" d="M6.75344 163.218H0.308594V163.837H6.75344V163.218Z" fill="#FF0000"/>
<path opacity="0.8" d="M3.76113 159.197H3.30078V167.859H3.76113V159.197Z" fill="#FF0000"/>
</g>
</g>
<defs>
<clipPath id="clip0">
<rect width="133.846" height="172.724" fill="white" transform="translate(0.308594 -4.86548)"/>
</clipPath>
</defs>
</svg>
