<svg width="66" height="66" viewBox="0 0 66 66" fill="none" xmlns="http://www.w3.org/2000/svg">
<mask id="mask0" mask-type="alpha" maskUnits="userSpaceOnUse" x="13" y="13" width="40" height="40">
<path d="M33 13.75C22.3685 13.75 13.75 22.3685 13.75 33C13.75 43.6315 22.3685 52.25 33 52.25C43.6315 52.25 52.25 43.6315 52.25 33C52.25 22.3685 43.6315 13.75 33 13.75ZM33 49.5C23.8873 49.5 16.5 42.1127 16.5 33C16.5 23.8873 23.8873 16.5 33 16.5C42.1127 16.5 49.5 23.8873 49.5 33C49.5 37.3761 47.7616 41.5729 44.6673 44.6673C41.5729 47.7616 37.3761 49.5 33 49.5ZM29.81 36.4925L27.06 33.9075L25.19 35.915L30.085 40.5075L40.9475 26.9775L38.8025 25.2725L29.81 36.4925Z" fill="white"/>
</mask>
<g mask="url(#mask0)">
<path d="M66 0H0V66H66V0Z" fill="black"/>
</g>
</svg>
