<svg width="65" height="66" viewBox="0 0 65 66" fill="none" xmlns="http://www.w3.org/2000/svg">
<mask id="mask0" mask-type="alpha" maskUnits="userSpaceOnUse" x="10" y="16" width="45" height="35">
<path d="M52.8971 25.0938H47.819C47.1179 25.0938 46.5495 25.6709 46.5495 26.3828C46.5495 27.0947 47.1179 27.6719 47.819 27.6719H49.8322L43.646 33.9533C43.0888 31.2984 41.3782 29.0721 39.0742 27.8428C40.4362 26.6597 41.3021 24.9037 41.3021 22.9453C41.3021 19.3914 38.4545 16.5 34.9544 16.5C31.4543 16.5 28.6067 19.3914 28.6067 22.9453C28.6067 24.9037 29.4726 26.6597 30.8346 27.8427C28.7092 28.9768 27.0886 30.959 26.4127 33.3438C26.2537 33.1589 26.0873 32.9794 25.9125 32.8065C25.29 32.1906 24.593 31.6781 23.8428 31.2777C25.2031 30.0946 26.0677 28.3398 26.0677 26.3828C26.0677 22.8289 23.2201 19.9375 19.72 19.9375C16.2199 19.9375 13.3724 22.8289 13.3724 26.3828C13.3724 28.3412 14.2382 30.0972 15.6002 31.2802C12.769 32.7908 10.8333 35.8067 10.8333 39.2734V48.7266C10.8333 49.4385 11.4017 50.0156 12.1028 50.0156H22.4284C22.7651 50.0156 23.088 49.8798 23.326 49.638L32.5846 40.2371L35.9187 43.6225C36.4144 44.1258 37.2183 44.1258 37.7141 43.6225L51.6276 29.4949V31.5391C51.6276 32.251 52.196 32.8281 52.8971 32.8281C53.5982 32.8281 54.1666 32.251 54.1666 31.5391V26.3828C54.1666 25.6709 53.5982 25.0938 52.8971 25.0938ZM31.1458 22.9453C31.1458 20.8129 32.8543 19.0781 34.9544 19.0781C37.0545 19.0781 38.763 20.8129 38.763 22.9453C38.763 25.0777 37.0545 26.8125 34.9544 26.8125C32.8543 26.8125 31.1458 25.0777 31.1458 22.9453ZM15.9114 26.3828C15.9114 24.2504 17.62 22.5156 19.72 22.5156C21.8201 22.5156 23.5286 24.2504 23.5286 26.3828C23.5286 28.5152 21.8201 30.25 19.72 30.25C17.62 30.25 15.9114 28.5152 15.9114 26.3828ZM21.9025 47.4375H13.3724V39.2734C13.3724 35.7195 16.2199 32.8281 19.72 32.8281C21.3813 32.8281 22.9512 33.4762 24.1405 34.6528C25.3274 35.8273 26.008 37.4 26.0569 39.0813C26.0583 39.1267 26.062 39.1713 26.0678 39.2153V43.2082L21.9025 47.4375ZM36.8164 40.8879L33.4823 37.5025C32.9865 36.9992 32.1827 36.9992 31.6869 37.5025L28.6067 40.6301V35.8359C28.6067 32.282 31.4543 29.3906 34.9544 29.3906C38.4545 29.3906 41.3021 32.282 41.3021 35.8359V36.3333L36.8164 40.8879Z" fill="white"/>
</mask>
<g mask="url(#mask0)">
<path d="M65 0H0V66H65V0Z" fill="black"/>
</g>
</svg>
