<svg width="66" height="67" viewBox="0 0 66 67" fill="none" xmlns="http://www.w3.org/2000/svg">
<mask id="mask0" mask-type="alpha" maskUnits="userSpaceOnUse" x="13" y="13" width="40" height="41">
<path d="M33 13.958C22.3685 13.958 13.75 22.7071 13.75 33.4997C13.75 44.2922 22.3685 53.0413 33 53.0413C43.6315 53.0413 52.25 44.2922 52.25 33.4997C52.25 22.7071 43.6315 13.958 33 13.958ZM23.65 47.2905C23.8231 46.7767 24.0251 46.2734 24.255 45.783C25.9866 42.4724 29.3974 40.4238 33.0894 40.4768C36.7813 40.5297 40.1337 42.6754 41.7725 46.0343C41.965 46.453 42.13 46.8997 42.295 47.3463C39.5499 49.2307 36.3138 50.2416 33 50.2497C29.6601 50.2466 26.3998 49.2148 23.65 47.2905ZM44.495 45.4759C44.495 45.2526 44.33 44.9734 44.1925 44.7222C42.0621 40.5291 37.8261 37.8719 33.1789 37.8134C28.5317 37.755 24.2321 40.3048 22 44.443C21.8345 44.7654 21.6965 45.1017 21.5875 45.448C16.7842 40.6907 15.2976 33.4542 17.8273 27.1444C20.3571 20.8347 26.3993 16.7088 33.11 16.7088C39.8207 16.7088 45.8629 20.8347 48.3927 27.1444C50.9225 33.4542 49.4358 40.6907 44.6325 45.448L44.495 45.4759ZM33 22.333C29.203 22.333 26.125 25.4577 26.125 29.3122C26.125 33.1667 29.203 36.2913 33 36.2913C36.797 36.2913 39.875 33.1667 39.875 29.3122C39.875 25.4577 36.797 22.333 33 22.333ZM33 33.4997C30.7218 33.4997 28.875 31.6249 28.875 29.3122C28.875 26.9995 30.7218 25.1247 33 25.1247C35.2782 25.1247 37.125 26.9995 37.125 29.3122C37.125 31.6249 35.2782 33.4997 33 33.4997Z" fill="white"/>
</mask>
<g mask="url(#mask0)">
<path d="M66 0H0V67H66V0Z" fill="black"/>
</g>
</svg>
