<svg width="66" height="67" viewBox="0 0 66 67" fill="none" xmlns="http://www.w3.org/2000/svg">
<mask id="mask0" mask-type="alpha" maskUnits="userSpaceOnUse" x="16" y="13" width="36" height="41">
<path d="M20.306 18.0955C26.3012 12.2781 42.6784 12.9635 47.7098 17.8578C51.1405 21.0149 52.4733 27.6497 51.442 36.5184C50.2904 46.4942 41.6856 49.2768 31.9373 48.6011C29.3229 51.9225 28.1601 53.5589 26.1553 52.8962C24.1103 52.2384 24.3878 49.5128 24.4375 47.1276C16.2449 44.0731 16.431 34.7111 16.5224 30.1326C16.6347 24.5268 17.8376 20.7022 20.306 18.0955ZM46.069 19.6472C41.8428 15.5312 27.0086 14.9694 22.0029 19.8247C20.0157 21.925 19.0277 25.2286 18.9282 30.1831C18.84 34.6232 18.6748 42.8829 25.9644 45.0679C27.2523 45.418 26.7583 46.9664 26.8369 47.5265C26.8113 48.7704 26.7776 50.3188 26.9941 50.646C27.2457 50.4869 28.1136 49.4474 29.3452 47.9469L29.9902 47.1601C30.3061 46.8573 30.6477 46.0237 31.5154 46.1181C34.8114 46.4079 38.2469 46.1979 41.8508 45.2324C43.591 44.7651 48.2134 43.5211 49.0538 36.2334C49.9793 28.2863 48.8902 22.2409 46.069 19.6472ZM23.5297 26.9414C22.1199 24.04 27.2459 19.0529 29.6148 22.0553C30.0639 22.6854 30.8579 23.4457 32.0608 25.6552C33.4176 28.2016 31.1305 29.3218 30.7472 29.8054C27.6293 32.5635 32.0784 38.2654 35.6903 34.983C35.8507 34.8788 37.2012 32.2151 39.6663 33.6625C40.619 34.2291 42.0994 35.2565 43.1516 36.3002C45.49 38.2914 42.2967 42.7559 39.5011 42.7559C37.5444 42.7559 32.5467 39.5321 30.8771 38.1351C26.0671 34.1363 24.8144 29.5416 23.5297 26.9414ZM38.2437 35.6896C37.7321 35.7873 37.7545 37.2315 35.0825 38.153C37.8973 39.9001 39.2076 40.2176 39.3889 40.3006C40.3079 40.4227 41.7514 38.2931 41.5349 38.1091C39.8331 36.4272 38.4073 35.7938 38.2437 35.6896ZM33.5107 20.1617C33.7047 20.1487 38.3961 20.0396 41.6215 23.5434C44.8709 27.0733 44.1636 31.9106 44.1315 32.1141C43.8813 33.7391 41.5108 33.319 41.7562 31.7348C41.761 31.7006 42.2983 27.8565 39.8636 25.2123C37.3985 22.5356 33.6117 22.604 33.5844 22.604C32.0656 22.731 31.8667 20.217 33.5107 20.1617ZM34.8446 25.4376L35.1097 25.4435C36.3431 25.5868 38.7986 26.6418 39.2846 29.6035C39.5444 31.1877 37.1771 31.6224 36.9125 30.004C36.5997 28.0974 34.8547 27.8711 34.8371 27.8695C33.2589 27.6839 33.5299 25.2628 35.1097 25.4435L34.8446 25.4376ZM27.6982 23.5304C27.703 23.5434 27.6517 23.5467 27.5523 23.6004C26.7888 24.0433 25.5554 25.0951 25.7351 25.9613C26.1842 26.9121 26.6252 28.2716 27.61 30.1587C27.9083 29.3755 28.3943 28.6657 29.0567 28.0697C29.5218 27.5878 30.242 27.3745 29.9501 26.8258C28.8498 24.8053 28.1601 24.1833 27.6982 23.5304Z" fill="white"/>
</mask>
<g mask="url(#mask0)">
<path d="M20.306 18.0955C26.3012 12.2781 42.6784 12.9635 47.7098 17.8578C51.1405 21.0149 52.4733 27.6497 51.442 36.5184C50.2904 46.4942 41.6856 49.2768 31.9373 48.6011C29.3229 51.9225 28.1601 53.5589 26.1553 52.8962C24.1103 52.2384 24.3878 49.5128 24.4375 47.1276C16.2449 44.0731 16.431 34.7111 16.5224 30.1326C16.6347 24.5268 17.8376 20.7022 20.306 18.0955ZM46.069 19.6472C41.8428 15.5312 27.0086 14.9694 22.0029 19.8247C20.0157 21.925 19.0277 25.2286 18.9282 30.1831C18.84 34.6232 18.6748 42.8829 25.9644 45.0679C27.2523 45.418 26.7583 46.9664 26.8369 47.5265C26.8113 48.7704 26.7776 50.3188 26.9941 50.646C27.2457 50.4869 28.1136 49.4474 29.3452 47.9469L29.9902 47.1601C30.3061 46.8573 30.6477 46.0237 31.5154 46.1181C34.8114 46.4079 38.2469 46.1979 41.8508 45.2324C43.591 44.7651 48.2134 43.5211 49.0538 36.2334C49.9793 28.2863 48.8902 22.2409 46.069 19.6472ZM23.5297 26.9414C22.1199 24.04 27.2459 19.0529 29.6148 22.0553C30.0639 22.6854 30.8579 23.4457 32.0608 25.6552C33.4176 28.2016 31.1305 29.3218 30.7472 29.8054C27.6293 32.5635 32.0784 38.2654 35.6903 34.983C35.8507 34.8788 37.2012 32.2151 39.6663 33.6625C40.619 34.2291 42.0994 35.2565 43.1516 36.3002C45.49 38.2914 42.2967 42.7559 39.5011 42.7559C37.5444 42.7559 32.5467 39.5321 30.8771 38.1351C26.0671 34.1363 24.8144 29.5416 23.5297 26.9414ZM38.2437 35.6896C37.7321 35.7873 37.7545 37.2315 35.0825 38.153C37.8973 39.9001 39.2076 40.2176 39.3889 40.3006C40.3079 40.4227 41.7514 38.2931 41.5349 38.1091C39.8331 36.4272 38.4073 35.7938 38.2437 35.6896ZM33.5107 20.1617C33.7047 20.1487 38.3961 20.0396 41.6215 23.5434C44.8709 27.0733 44.1636 31.9106 44.1315 32.1141C43.8813 33.7391 41.5108 33.319 41.7562 31.7348C41.761 31.7006 42.2983 27.8565 39.8636 25.2123C37.3985 22.5356 33.6117 22.604 33.5844 22.604C32.0656 22.731 31.8667 20.217 33.5107 20.1617ZM34.8446 25.4376L35.1097 25.4435C36.3431 25.5868 38.7986 26.6418 39.2846 29.6035C39.5444 31.1877 37.1771 31.6224 36.9125 30.004C36.5997 28.0974 34.8547 27.8711 34.8371 27.8695C33.2589 27.6839 33.5299 25.2628 35.1097 25.4435L34.8446 25.4376ZM27.6982 23.5304C27.703 23.5434 27.6517 23.5467 27.5523 23.6004C26.7888 24.0433 25.5554 25.0951 25.7351 25.9613C26.1842 26.9121 26.6252 28.2716 27.61 30.1587C27.9083 29.3755 28.3943 28.6657 29.0567 28.0697C29.5218 27.5878 30.242 27.3745 29.9501 26.8258C28.8498 24.8053 28.1601 24.1833 27.6982 23.5304Z" fill="black"/>
<path d="M66 0H0V67H66V0Z" fill="black"/>
</g>
</svg>
