<svg width="66" height="67" viewBox="0 0 66 67" fill="none" xmlns="http://www.w3.org/2000/svg">
<mask id="mask0" mask-type="alpha" maskUnits="userSpaceOnUse" x="13" y="14" width="39" height="39">
<path d="M16.211 42.5632C5.86217 23.4737 30.5931 4.11061 46.4727 19.6917C58.0575 31.8179 49.8123 52.6591 32.9789 52.6591C31.1002 52.4794 28.1578 52.5426 24.2872 50.5415C15.9978 52.7236 15.2915 52.9469 15.0564 52.9683L14.9606 52.9702C14.1648 52.9702 13.5987 52.201 13.8076 51.4336L16.211 42.5632ZM44.5685 21.2039C30.566 7.89418 8.98962 25.0797 18.5314 41.7941C18.6909 42.0758 18.734 42.411 18.6479 42.7251L16.6623 50.0493L24.1309 48.0742C25.1818 47.7909 26.6587 49.8599 32.3649 50.1821C39.379 50.5674 45.6386 46.4568 48.3514 39.7866C52.7579 28.9604 44.8444 21.7155 44.5685 21.2039ZM25.3429 23.3685C27.5565 23.3685 28.0461 23.8606 28.6889 25.6755C28.9105 26.3021 29.212 27.1569 29.818 28.3825C30.5389 29.8444 29.4815 31.0392 28.9169 31.6803C28.826 31.7839 28.7048 31.9199 28.6139 32.0349C30.2279 34.6997 31.7988 35.6371 34.1416 36.8271C35.3616 35.2291 36.0123 34.0149 37.773 34.6657C37.9723 34.7434 42.071 36.3479 42.5271 37.1833C43.6658 39.2766 41.3932 44.8848 34.9342 43.3241C28.9026 41.8621 21.2506 34.8681 21.2506 29.0899C21.2506 26.4429 23.0384 23.3685 25.3429 23.3685ZM25.6026 25.7988L25.3429 25.7969C24.7481 25.7969 23.6428 27.4888 23.6412 29.0883C23.6412 33.2945 29.952 39.6182 35.4892 40.9604C38.7155 41.7407 40.3103 40.193 40.3853 38.5157C39.5464 38.085 37.6358 37.227 37.0696 36.9938C35.848 38.4007 35.2324 40.0019 33.3059 39.118C30.4129 37.6576 28.3938 36.4515 26.3764 32.9739C25.3892 31.2513 27.5183 29.9189 27.6682 29.3506C26.7049 27.5471 26.4433 26.3879 26.185 25.8325C26.0638 25.8131 25.8214 25.7969 25.3429 25.7969L25.6026 25.7988Z" fill="white"/>
</mask>
<g mask="url(#mask0)">
<path d="M16.211 42.5632C5.86217 23.4737 30.5931 4.11061 46.4727 19.6917C58.0575 31.8179 49.8123 52.6591 32.9789 52.6591C31.1002 52.4794 28.1578 52.5426 24.2872 50.5415C15.9978 52.7236 15.2915 52.9469 15.0564 52.9683L14.9606 52.9702C14.1648 52.9702 13.5987 52.201 13.8076 51.4336L16.211 42.5632ZM44.5685 21.2039C30.566 7.89418 8.98962 25.0797 18.5314 41.7941C18.6909 42.0758 18.734 42.411 18.6479 42.7251L16.6623 50.0493L24.1309 48.0742C25.1818 47.7909 26.6587 49.8599 32.3649 50.1821C39.379 50.5674 45.6386 46.4568 48.3514 39.7866C52.7579 28.9604 44.8444 21.7155 44.5685 21.2039ZM25.3429 23.3685C27.5565 23.3685 28.0461 23.8606 28.6889 25.6755C28.9105 26.3021 29.212 27.1569 29.818 28.3825C30.5389 29.8444 29.4815 31.0392 28.9169 31.6803C28.826 31.7839 28.7048 31.9199 28.6139 32.0349C30.2279 34.6997 31.7988 35.6371 34.1416 36.8271C35.3616 35.2291 36.0123 34.0149 37.773 34.6657C37.9723 34.7434 42.071 36.3479 42.5271 37.1833C43.6658 39.2766 41.3932 44.8848 34.9342 43.3241C28.9026 41.8621 21.2506 34.8681 21.2506 29.0899C21.2506 26.4429 23.0384 23.3685 25.3429 23.3685ZM25.6026 25.7988L25.3429 25.7969C24.7481 25.7969 23.6428 27.4888 23.6412 29.0883C23.6412 33.2945 29.952 39.6182 35.4892 40.9604C38.7155 41.7407 40.3103 40.193 40.3853 38.5157C39.5464 38.085 37.6358 37.227 37.0696 36.9938C35.848 38.4007 35.2324 40.0019 33.3059 39.118C30.4129 37.6576 28.3938 36.4515 26.3764 32.9739C25.3892 31.2513 27.5183 29.9189 27.6682 29.3506C26.7049 27.5471 26.4433 26.3879 26.185 25.8325C26.0638 25.8131 25.8214 25.7969 25.3429 25.7969L25.6026 25.7988Z" fill="black"/>
<path d="M66.0061 0.046875H0.006073V67.0469H66.0061V0.046875Z" fill="black"/>
</g>
</svg>
