<svg width="100" height="100" viewBox="0 0 100 100" fill="none" xmlns="http://www.w3.org/2000/svg">
<g clip-path="url(#clip0)">
<path d="M97.802 47.8165C97.7966 21.4027 76.3794 -0.00533959 49.9649 9.99003e-07C23.5512 0.00534158 2.14311 21.4233 2.14845 47.8371C2.15303 68.6432 15.6075 87.059 35.4279 93.3876C35.6171 93.4471 35.8139 93.4776 36.0115 93.4769C36.3884 93.4761 36.7577 93.3754 37.0819 93.1839C37.5038 92.9344 37.8189 92.5377 37.9669 92.07L50.045 53.7888C53.347 53.772 56.0097 51.0811 55.9921 47.7798C55.9754 44.4778 53.2852 41.8152 49.9832 41.832C49.0952 41.8358 48.2186 42.0403 47.4205 42.4301L31.4644 26.4717C30.6725 25.7072 29.4113 25.7294 28.6469 26.5205C27.9007 27.2934 27.9007 28.5172 28.6469 29.29L44.5946 45.256C43.3708 47.7539 44.0704 50.769 46.2708 52.4719L34.7626 88.9496C12.0194 80.5717 0.373856 55.3436 8.75169 32.6004C17.1295 9.85718 42.3577 -1.78833 65.1009 6.58951C87.8441 14.9673 99.4896 40.1962 91.1118 62.9387C87.0186 74.0501 78.6087 83.036 67.7925 87.8555L66.5489 81.9984C66.3216 80.9219 65.2634 80.2338 64.1869 80.4619C63.8474 80.5344 63.5323 80.6938 63.2729 80.925L51.2825 91.6298C50.4601 92.3615 50.3868 93.6211 51.1192 94.4435C51.3573 94.7105 51.6625 94.9089 52.0043 95.018L67.3126 99.9039C68.3602 100.24 69.4824 99.6643 69.8189 98.616C69.9257 98.2849 69.9433 97.9324 69.8715 97.5922L68.6493 91.8449C86.3503 84.3826 97.8432 67.0258 97.802 47.8165ZM49.9756 45.8237C51.0758 45.8237 51.9684 46.7163 51.9684 47.8165C51.9684 48.9174 51.0758 49.8093 49.9756 49.8093C48.8747 49.8093 47.9828 48.9174 47.9828 47.8165C47.9828 46.7163 48.8747 45.8237 49.9756 45.8237ZM56.5392 92.2737L63.3644 86.1855L65.2481 95.0615L56.5392 92.2737Z" fill="black"/>
<path d="M47.9828 9.95331V13.9389C47.9828 15.0398 48.8747 15.9317 49.9756 15.9317C51.0757 15.9317 51.9684 15.0398 51.9684 13.9389V9.95331C51.9684 8.85315 51.0757 7.96051 49.9756 7.96051C48.8747 7.96051 47.9828 8.85315 47.9828 9.95331Z" fill="black"/>
<path d="M12.1125 45.8237C11.0115 45.8237 10.1197 46.7163 10.1197 47.8165C10.1197 48.9174 11.0115 49.8093 12.1125 49.8093H16.0981C17.199 49.8093 18.0909 48.9174 18.0909 47.8165C18.0909 46.7163 17.199 45.8237 16.0981 45.8237H12.1125Z" fill="black"/>
<path d="M87.838 49.8093C88.9389 49.8093 89.8308 48.9174 89.8308 47.8165C89.8308 46.7163 88.9389 45.8237 87.838 45.8237H83.8524C82.7522 45.8237 81.8596 46.7163 81.8596 47.8165C81.8596 48.9174 82.7522 49.8093 83.8524 49.8093H87.838Z" fill="black"/>
</g>
<defs>
<clipPath id="clip0">
<rect width="100" height="100" fill="white"/>
</clipPath>
</defs>
</svg>
