<svg width="65" height="66" viewBox="0 0 65 66" fill="none" xmlns="http://www.w3.org/2000/svg">
<mask id="mask0" mask-type="alpha" maskUnits="userSpaceOnUse" x="16" y="16" width="34" height="34">
<path d="M26.1056 40.8032L20.2392 35.204L16.25 39.5523L26.6922 49.5L49.8646 20.1931L45.2888 16.5L26.1056 40.8032Z" fill="white"/>
</mask>
<g mask="url(#mask0)">
<path d="M65 0H0V66H65V0Z" fill="black"/>
</g>
</svg>
