<svg width="66" height="66" viewBox="0 0 66 66" fill="none" xmlns="http://www.w3.org/2000/svg">
<mask id="mask0" mask-type="alpha" maskUnits="userSpaceOnUse" x="22" y="27" width="20" height="13">
<path d="M23.9525 27.5L22 29.4525L31.735 39.16L41.47 29.4525L39.5175 27.5L31.735 35.2825L23.9525 27.5Z" fill="white"/>
</mask>
<g mask="url(#mask0)">
<path d="M66 0H0V66H66V0Z" fill="black"/>
</g>
</svg>
