<svg width="66" height="66" viewBox="0 0 66 66" fill="none" xmlns="http://www.w3.org/2000/svg">
<mask id="mask0" mask-type="alpha" maskUnits="userSpaceOnUse" x="11" y="16" width="44" height="34">
<path d="M52.25 22H33L27.5 16.5H11V46.75C11 48.2688 12.2312 49.5 13.75 49.5H52.25C53.7688 49.5 55 48.2688 55 46.75V24.75C55 23.2312 53.7688 22 52.25 22ZM13.75 19.25H26.3725L29.1225 22H13.75V19.25ZM52.25 46.75H13.75V24.75H52.25V46.75Z" fill="white"/>
</mask>
<g mask="url(#mask0)">
<path d="M66 0H0V66H66V0Z" fill="black"/>
</g>
</svg>
