<svg width="67" height="66" viewBox="0 0 67 66" fill="none" xmlns="http://www.w3.org/2000/svg">
<mask id="mask0" mask-type="alpha" maskUnits="userSpaceOnUse" x="12" y="12" width="44" height="42">
<path d="M55.1076 28.7648L33.5559 12.9248L12.0043 29.0123L13.6514 31.2123L16.8059 28.9298V50.5448C16.8059 52.0636 18.0558 53.2948 19.5976 53.2948H47.5143C49.0561 53.2948 50.3059 52.0636 50.3059 50.5448V28.5448L53.5164 30.9098L55.1076 28.7648ZM47.5143 50.5448H19.5976V26.8398L33.5559 16.3623L47.5143 26.5373V50.5448Z" fill="white"/>
</mask>
<g mask="url(#mask0)">
<path d="M67 0H0V66H67V0Z" fill="black"/>
</g>
</svg>
