<svg width="65" height="66" viewBox="0 0 65 66" fill="none" xmlns="http://www.w3.org/2000/svg">
<mask id="mask0" mask-type="alpha" maskUnits="userSpaceOnUse" x="10" y="15" width="45" height="36">
<path d="M48.75 42.625V17.875C48.75 16.3562 47.5374 15.125 46.0417 15.125H13.5417C12.0459 15.125 10.8333 16.3562 10.8333 17.875V42.625C10.8333 44.1438 12.0459 45.375 13.5417 45.375H46.0417C47.5374 45.375 48.75 44.1438 48.75 42.625ZM13.5417 17.875H46.0417V42.625H13.5417V17.875ZM29.7917 37.5925C25.798 37.5925 22.5604 34.3051 22.5604 30.25C22.5604 26.1948 25.798 22.9075 29.7917 22.9075C33.7854 22.9075 37.0229 26.1948 37.0229 30.25C37.0081 34.2989 33.7792 37.5774 29.7917 37.5925ZM29.7917 25.6575C27.2937 25.6575 25.2687 27.7136 25.2687 30.25C25.2687 32.7864 27.2937 34.8425 29.7917 34.8425C32.2896 34.8425 34.3146 32.7864 34.3146 30.25C34.3146 29.032 33.8381 27.8639 32.9898 27.0026C32.1416 26.1413 30.9912 25.6575 29.7917 25.6575ZM51.4583 22H54.1667V48.125C54.1667 49.6438 52.9541 50.875 51.4583 50.875H18.9583V48.125H51.4583V22Z" fill="white"/>
</mask>
<g mask="url(#mask0)">
<path d="M65 0H0V66H65V0Z" fill="black"/>
</g>
</svg>
