<svg width="66" height="67" viewBox="0 0 66 67" fill="none" xmlns="http://www.w3.org/2000/svg">
<mask id="mask0" mask-type="alpha" maskUnits="userSpaceOnUse" x="15" y="16" width="36" height="35">
<path d="M50.2227 48.848L40.4052 38.9097C45.0036 33.1187 44.3208 24.6845 38.8528 19.7332C33.3849 14.782 25.0529 15.0533 19.9087 20.35C14.7645 25.6467 14.6155 34.108 19.5699 39.588C24.5243 45.068 32.8414 45.6414 38.4802 40.8918L48.2977 50.858L50.2227 48.848ZM21.7877 37.9884C17.7505 33.5028 17.9042 26.5867 22.1364 22.2903C26.3686 17.9939 33.1815 17.838 37.6002 21.9364C41.6374 26.422 41.4838 33.3381 37.2516 37.6345C33.0193 41.9309 26.2064 42.0868 21.7877 37.9884Z" fill="white"/>
</mask>
<g mask="url(#mask0)">
<path d="M66 0H0V67H66V0Z" fill="black"/>
</g>
</svg>
