<svg width="65" height="67" viewBox="0 0 65 67" fill="none" xmlns="http://www.w3.org/2000/svg">
<mask id="mask0" mask-type="alpha" maskUnits="userSpaceOnUse" x="10" y="19" width="45" height="27">
<path d="M32.4999 19.542C45.464 19.542 53.665 31.5296 54.0062 32.0415C54.2391 32.3876 54.2157 32.8511 53.9538 33.1711C53.5367 33.6792 43.6242 45.598 32.4999 45.598C21.3757 45.598 11.463 33.6792 11.0459 33.1711C10.7625 32.8231 10.7625 32.315 11.0459 31.9689C11.463 31.4608 21.3757 19.542 32.4999 19.542ZM32.4999 21.4032C23.5695 21.4032 15.0995 30.1673 12.9491 32.57C15.1031 34.9709 23.5822 43.7369 32.4999 43.7369C41.4935 43.7369 50.0213 34.8443 52.0977 32.5198C50.2994 30.1562 42.9344 21.4032 32.4999 21.4032ZM32.4999 25.1254C36.483 25.1254 39.7222 28.4643 39.7222 32.57C39.7222 36.6756 36.483 40.0145 32.4999 40.0145C28.5168 40.0145 25.2776 36.6756 25.2776 32.57C25.2776 28.4643 28.5168 25.1254 32.4999 25.1254ZM32.4999 26.9866C29.5135 26.9866 27.0832 29.4917 27.0832 32.57C27.0832 35.6483 29.5135 38.1535 32.4999 38.1535C35.4863 38.1535 37.9167 35.6483 37.9167 32.57C37.9167 29.4917 35.4863 26.9866 32.4999 26.9866Z" fill="white"/>
</mask>
<g mask="url(#mask0)">
<path d="M65 0H0V67H65V0Z" fill="black"/>
</g>
</svg>
