<svg width="358" height="345" viewBox="0 0 358 345" fill="none" xmlns="http://www.w3.org/2000/svg">
<g clip-path="url(#clip0)">
<g opacity="0.8">
<path opacity="0.8" d="M355.537 8.26562H338.299V9.53728H355.537V8.26562Z" fill="#FF0000"/>
<path opacity="0.8" d="M347.534 0H346.303V17.8031H347.534V0Z" fill="#FF0000"/>
</g>
<g opacity="0.8">
<path opacity="0.8" d="M242.874 8.26562H225.635V9.53728H242.874V8.26562Z" fill="#FF0000"/>
<path opacity="0.8" d="M234.87 0H233.639V17.8031H234.87V0Z" fill="#FF0000"/>
</g>
<g opacity="0.8">
<path opacity="0.8" d="M129.902 8.26562H112.664V9.53728H129.902V8.26562Z" fill="#FF0000"/>
<path opacity="0.8" d="M121.899 0H120.667V17.8031H121.899V0Z" fill="#FF0000"/>
</g>
<g opacity="0.8">
<path opacity="0.8" d="M17.2382 8.26562H0V9.53728H17.2382V8.26562Z" fill="#FF0000"/>
<path opacity="0.8" d="M9.23469 0H8.00339V17.8031H9.23469V0Z" fill="#FF0000"/>
</g>
<g opacity="0.8">
<path opacity="0.8" d="M355.537 107.068H338.299V108.34H355.537V107.068Z" fill="#FF0000"/>
<path opacity="0.8" d="M347.534 98.8025H346.303V116.606H347.534V98.8025Z" fill="#FF0000"/>
</g>
<g opacity="0.8">
<path opacity="0.8" d="M242.874 107.068H225.635V108.34H242.874V107.068Z" fill="#FF0000"/>
<path opacity="0.8" d="M234.87 98.8025H233.639V116.606H234.87V98.8025Z" fill="#FF0000"/>
</g>
<g opacity="0.8">
<path opacity="0.8" d="M129.902 107.068H112.664V108.34H129.902V107.068Z" fill="#FF0000"/>
<path opacity="0.8" d="M121.899 98.8025H120.667V116.606H121.899V98.8025Z" fill="#FF0000"/>
</g>
<g opacity="0.8">
<path opacity="0.8" d="M17.2382 107.068H0V108.34H17.2382V107.068Z" fill="#FF0000"/>
<path opacity="0.8" d="M9.23469 98.8025H8.00339V116.606H9.23469V98.8025Z" fill="#FF0000"/>
</g>
<g opacity="0.8">
<path opacity="0.8" d="M355.537 223.106H338.299V224.378H355.537V223.106Z" fill="#FF0000"/>
<path opacity="0.8" d="M347.534 214.841H346.303V232.644H347.534V214.841Z" fill="#FF0000"/>
</g>
<g opacity="0.8">
<path opacity="0.8" d="M242.874 223.106H225.635V224.378H242.874V223.106Z" fill="#FF0000"/>
<path opacity="0.8" d="M234.87 214.841H233.639V232.644H234.87V214.841Z" fill="#FF0000"/>
</g>
<g opacity="0.8">
<path opacity="0.8" d="M129.902 223.106H112.664V224.378H129.902V223.106Z" fill="#FF0000"/>
<path opacity="0.8" d="M121.899 214.841H120.667V232.644H121.899V214.841Z" fill="#FF0000"/>
</g>
<g opacity="0.8">
<path opacity="0.8" d="M17.2382 223.106H0V224.378H17.2382V223.106Z" fill="#FF0000"/>
<path opacity="0.8" d="M9.23469 214.841H8.00339V232.644H9.23469V214.841Z" fill="#FF0000"/>
</g>
<g opacity="0.8">
<path opacity="0.8" d="M355.537 339.462H338.299V340.734H355.537V339.462Z" fill="#FF0000"/>
<path opacity="0.8" d="M347.534 331.197H346.303V349H347.534V331.197Z" fill="#FF0000"/>
</g>
<g opacity="0.8">
<path opacity="0.8" d="M129.902 339.462H112.664V340.734H129.902V339.462Z" fill="#FF0000"/>
<path opacity="0.8" d="M121.899 331.197H120.667V349H121.899V331.197Z" fill="#FF0000"/>
</g>
<g opacity="0.8">
<path opacity="0.8" d="M17.2382 339.462H0V340.734H17.2382V339.462Z" fill="#FF0000"/>
<path opacity="0.8" d="M9.23469 331.197H8.00339V349H9.23469V331.197Z" fill="#FF0000"/>
</g>
</g>
<defs>
<clipPath id="clip0">
<rect width="358" height="355" fill="white" transform="translate(0 -10)"/>
</clipPath>
</defs>
</svg>
