<svg width="65" height="66" viewBox="0 0 65 66" fill="none" xmlns="http://www.w3.org/2000/svg">
<mask id="mask0" mask-type="alpha" maskUnits="userSpaceOnUse" x="26" y="23" width="13" height="20">
<path d="M34.4229 32.9996L26.7583 40.7822L28.6812 42.7346L38.2417 32.9996L28.6812 23.2646L26.7583 25.2171L34.4229 32.9996Z" fill="white"/>
</mask>
<g mask="url(#mask0)">
<path d="M65 0H0V66H65V0Z" fill="black"/>
</g>
</svg>
