<svg width="66" height="65" viewBox="0 0 66 65" fill="none" xmlns="http://www.w3.org/2000/svg">
<mask id="mask0" mask-type="alpha" maskUnits="userSpaceOnUse" x="11" y="13" width="44" height="38">
<path d="M33 35.2189C36.4089 35.2189 39.4673 36.7236 41.5276 39.0936C42.9348 38.1858 44.5815 37.6951 46.2898 37.6951C51.0926 37.6951 55 41.5433 55 46.2733V47.5999H34.3469V50.2529H31.6531V47.5999H11V46.2733C11 41.5433 14.9074 37.6951 19.7102 37.6951C21.4185 37.6951 23.0651 38.1857 24.4724 39.0936C26.5327 36.7236 29.5911 35.2189 33 35.2189ZM19.7102 40.3482C16.8557 40.3482 14.459 42.3161 13.8459 44.9468H21.8566C22.0149 43.6494 22.4021 42.4204 22.9775 41.3002C22.0102 40.6819 20.8811 40.3482 19.7102 40.3482ZM31.6531 37.977C28.0258 38.5461 25.1539 41.3746 24.5761 44.9468H31.6531V37.977ZM34.3469 37.977V44.9468H41.4239C40.8461 41.3745 37.9741 38.5461 34.3469 37.977ZM46.2898 40.3482C45.1189 40.3482 43.9898 40.682 43.0225 41.3002C43.5979 42.4203 43.9851 43.6493 44.1434 44.9468H52.1541C51.541 42.3161 49.1443 40.3482 46.2898 40.3482ZM46.2898 24.4298C49.2606 24.4298 51.6776 26.8101 51.6776 29.7359C51.6776 32.6617 49.2606 35.042 46.2898 35.042C43.319 35.042 40.902 32.6617 40.902 29.7359C40.902 26.8101 43.319 24.4298 46.2898 24.4298ZM19.7102 24.4298C22.681 24.4298 25.098 26.8101 25.098 29.7359C25.098 32.6617 22.681 35.042 19.7102 35.042C16.7394 35.042 14.3224 32.6617 14.3224 29.7359C14.3224 26.8101 16.7394 24.4298 19.7102 24.4298ZM32.9857 13.542L36.035 16.2256L38.7784 13.9944H40.7748L39.7347 23.3059V25.9332C39.7347 29.5904 36.7135 32.5659 33 32.5659C29.2865 32.5659 26.2653 29.5904 26.2653 25.9332V23.3085L25.1917 13.9944H27.1934L29.9364 16.2255L32.9857 13.542ZM46.2898 27.0829C44.8044 27.0829 43.5959 28.273 43.5959 29.7359C43.5959 31.1988 44.8044 32.389 46.2898 32.389C47.7752 32.389 48.9837 31.1988 48.9837 29.7359C48.9837 28.273 47.7752 27.0829 46.2898 27.0829ZM19.7102 27.0829C18.2248 27.0829 17.0163 28.273 17.0163 29.7359C17.0163 31.1988 18.2248 32.389 19.7102 32.389C21.1956 32.389 22.4041 31.1988 22.4041 29.7359C22.4041 28.273 21.1956 27.0829 19.7102 27.0829ZM37.0408 24.6067H28.9592V25.9332C28.9592 28.1275 30.7719 29.9128 33 29.9128C35.2281 29.9128 37.0408 28.1275 37.0408 25.9332V24.6067ZM32.9857 17.0999L30.0057 19.7226L28.4139 18.428L28.8204 21.9536H37.1756L37.5706 18.4173L35.9658 19.7225L32.9857 17.0999Z" fill="white"/>
</mask>
<g mask="url(#mask0)">
<path d="M66 0H0V65H66V0Z" fill="black"/>
</g>
</svg>
