<svg width="66" height="65" viewBox="0 0 66 65" fill="none" xmlns="http://www.w3.org/2000/svg">
<mask id="mask0" mask-type="alpha" maskUnits="userSpaceOnUse" x="16" y="10" width="35" height="45">
<path d="M33.6368 33.1839C43.0861 33.1839 50.7737 40.755 50.7737 50.0611V51.4295H35.0263V54.1663H32.2474V51.4295H16.5V50.0611C16.5 40.755 24.1876 33.1839 33.6368 33.1839ZM35.0263 35.9865V38.6576H32.2474V35.9865C25.4372 36.6335 20.0027 41.9857 19.3456 48.6926H32.2474V41.3944H35.0263V48.6926H47.928C47.271 41.9857 41.8365 36.6335 35.0263 35.9865ZM33.6368 10.833C39.1277 10.833 43.5947 15.2324 43.5947 20.64C43.5947 26.0477 39.1277 30.447 33.6368 30.447C28.146 30.447 23.6789 26.0477 23.6789 20.64C23.6789 15.2324 28.146 10.833 33.6368 10.833ZM33.6368 13.5698C29.6783 13.5698 26.4579 16.7415 26.4579 20.64C26.4579 24.5386 29.6783 27.7102 33.6368 27.7102C37.5954 27.7102 40.8158 24.5386 40.8158 20.64C40.8158 16.7415 37.5954 13.5698 33.6368 13.5698Z" fill="white"/>
</mask>
<g mask="url(#mask0)">
<path d="M66 0H0V65H66V0Z" fill="black"/>
</g>
</svg>
