<svg width="65" height="66" viewBox="0 0 65 66" fill="none" xmlns="http://www.w3.org/2000/svg">
<mask id="mask0" mask-type="alpha" maskUnits="userSpaceOnUse" x="18" y="20" width="29" height="26">
<path d="M18.9583 34.375V31.625H46.0417V34.375H18.9583ZM18.9583 45.375V42.625H46.0417V45.375H18.9583ZM18.9583 23.375V20.625H46.0417V23.375H18.9583Z" fill="white"/>
</mask>
<g mask="url(#mask0)">
<path d="M65 0H0V66H65V0Z" fill="black"/>
</g>
</svg>
