<svg width="67" height="67" viewBox="0 0 67 67" fill="none" xmlns="http://www.w3.org/2000/svg">
<mask id="mask0" mask-type="alpha" maskUnits="userSpaceOnUse" x="13" y="13" width="41" height="41">
<path d="M33.5 27.9163C30.4164 27.9163 27.9166 30.4161 27.9166 33.4997C27.9166 36.5833 30.4164 39.083 33.5 39.083C36.5836 39.083 39.0833 36.5833 39.0833 33.4997C39.0833 30.4161 36.5836 27.9163 33.5 27.9163ZM33.5 35.9005C32.174 35.9005 31.0991 34.8256 31.0991 33.4997C31.0991 32.1737 32.174 31.0988 33.5 31.0988C34.8259 31.0988 35.9008 32.1737 35.9008 33.4997C35.8857 34.8193 34.8196 35.8854 33.5 35.9005ZM49.3008 39.083H53.0416V27.9163H49.3008C49.1054 27.358 48.8821 26.8276 48.6308 26.2693L51.255 23.6172L43.3825 15.7447L40.7304 18.3688C40.1721 18.1176 39.6416 17.8943 39.0833 17.6988V13.958H27.9166V17.6988C27.3583 17.8943 26.8279 18.1176 26.2696 18.3688L23.6175 15.7447L15.745 23.6172L18.3691 26.2693C18.1179 26.8276 17.8946 27.358 17.6991 27.9163H13.9583V39.083H17.6991C17.8935 39.6434 18.1171 40.1932 18.3691 40.7301L15.745 43.3822L23.6175 51.2547L26.2696 48.6305C26.8065 48.8825 27.3563 49.1062 27.9166 49.3005V53.0413H39.0833V49.3005C39.6437 49.1062 40.1935 48.8825 40.7304 48.6305L43.3825 51.2547L51.255 43.3822L48.6308 40.7301C48.8828 40.1932 49.1065 39.6434 49.3008 39.083ZM47.7096 43.3822L43.3825 47.7093L41.2329 45.5876L39.6416 46.3413C39.1889 46.5653 38.7227 46.7611 38.2458 46.9276L36.5708 47.5138V50.5288H30.4291V47.458L28.7541 46.8718C28.2773 46.7052 27.8111 46.5094 27.3583 46.2855L25.7671 45.5318L23.6175 47.6534L19.2904 43.3822L21.4121 41.2326L20.6583 39.6413C20.4344 39.1886 20.2386 38.7224 20.0721 38.2455L19.5416 36.5705H16.4708V30.4288H19.5416L20.1279 28.7538C20.2944 28.277 20.4902 27.8108 20.7141 27.358L21.4679 25.7668L19.3462 23.6172L23.6175 19.2901L25.7671 21.4118L27.3583 20.658C27.8111 20.4341 28.2773 20.2383 28.7541 20.0718L30.4291 19.5413V16.4705H36.5708V19.5413L38.2458 20.1276C38.7227 20.2941 39.1889 20.4899 39.6416 20.7138L41.2329 21.4676L43.3825 19.3459L47.7096 23.673L45.5879 25.8226L46.3416 27.4138C46.5656 27.8666 46.7614 28.3328 46.9279 28.8097L47.5141 30.4847H50.5291V36.6263H47.4583L46.8721 38.3013C46.7055 38.7782 46.5097 39.2444 46.2858 39.6972L45.5321 41.2884L47.7096 43.3822Z" fill="white"/>
</mask>
<g mask="url(#mask0)">
<path d="M67 0H0V67H67V0Z" fill="black"/>
</g>
</svg>
