<svg width="100" height="100" viewBox="0 0 100 100" fill="none" xmlns="http://www.w3.org/2000/svg">
<g opacity="0.8" clip-path="url(#clip0)">
<path d="M40.3627 80.6351H21.0426C18.307 80.6351 16.0815 78.4096 16.0815 75.674V70.2413C16.5155 70.3423 16.9611 70.3983 17.4136 70.3983C17.6192 70.3983 17.8264 70.3877 18.034 70.3661C18.3744 70.3307 18.707 70.2655 19.03 70.175V75.674C19.03 76.7838 19.9328 77.6866 21.0426 77.6866H39.9757C40.7898 77.6866 41.4499 77.0267 41.4499 76.2124C41.4499 75.398 40.7898 74.7381 39.9757 74.7381H21.9785V68.2503C21.9883 68.2383 21.9989 68.2271 22.0086 68.2149C23.9508 65.8233 23.7077 62.359 21.5342 60.2544C22.4835 59.8986 23.3538 59.2961 24.0377 58.454C25.98 56.0624 25.7368 52.5981 23.5634 50.4935C24.5126 50.1377 25.383 49.5352 26.0669 48.6931C27.0611 47.4687 27.5191 45.9304 27.3563 44.3616C27.1936 42.793 26.4297 41.3813 25.2053 40.387L21.9783 37.7664V8.84546H28.506L28.5483 8.97873C29.0395 10.5265 30.4605 11.5665 32.0843 11.5665H43.4787C45.1025 11.5665 46.5235 10.5267 47.0149 8.97854L47.0575 8.84546H52.916V29.3041C52.916 30.1184 53.5759 30.7783 54.3902 30.7783C55.2046 30.7783 55.8645 30.1184 55.8645 29.3041V7.90961C55.8645 6.7998 54.9617 5.89697 53.852 5.89697H46.6603C45.6075 5.89697 44.686 6.57139 44.3673 7.57506L44.205 8.08672C44.1041 8.40457 43.8124 8.61804 43.4791 8.61804H32.0847C31.7515 8.61804 31.4598 8.40456 31.359 8.08691L31.1966 7.57506C30.8782 6.57139 29.9569 5.89697 28.9037 5.89697H21.0426C19.9328 5.89697 19.03 6.8 19.03 7.90961V35.3799C18.159 34.731 17.1449 34.3413 16.0815 34.2394V19.234C16.0815 18.4196 15.4214 17.7597 14.6073 17.7597C13.798 17.7597 13.1417 18.4117 13.1338 19.2192C12.0511 18.5767 10.796 18.2987 9.52091 18.431C7.95212 18.5938 6.54058 19.3576 5.54635 20.582C4.55212 21.8064 4.09412 23.3448 4.25668 24.9136C4.41943 26.4822 5.18329 27.8939 6.4077 28.8881L13.133 34.3495V34.7094C12.2819 35.0819 11.5257 35.6533 10.923 36.3954C9.92879 37.6198 9.47079 39.1581 9.63335 40.7269C9.77782 42.1205 10.398 43.3894 11.3928 44.3526C10.4235 44.7164 9.56376 45.3313 8.89367 46.1562C6.95101 48.5486 7.19455 52.0137 9.36916 54.1183C8.41955 54.4735 7.54857 55.0746 6.86452 55.9171C5.87009 57.1415 5.41209 58.6799 5.57485 60.2487C5.73761 61.8172 6.50146 63.229 7.72587 64.2234L13.1328 68.6141V75.6738C13.1328 80.0352 16.681 83.5834 21.0424 83.5834H40.3625C41.1767 83.5834 41.8368 82.9235 41.8368 82.1091C41.8368 81.2948 41.1769 80.6351 40.3627 80.6351ZM8.26643 26.5991C7.65354 26.1014 7.27102 25.3947 7.18944 24.6093C7.10806 23.8238 7.33726 23.0536 7.83516 22.4406C8.33287 21.8277 9.03952 21.4453 9.8252 21.3636C10.6099 21.2818 11.3808 21.5112 11.9937 22.0093L13.133 22.9345V30.5511L8.26643 26.5991ZM13.212 38.2539C13.7097 37.641 14.4164 37.2587 15.2021 37.1769C15.3058 37.1661 15.4094 37.1608 15.5126 37.1608C16.1884 37.1608 16.8389 37.3908 17.3708 37.8226L23.3472 42.6757C23.9601 43.1734 24.3426 43.88 24.4242 44.6655C24.5055 45.451 24.2763 46.2211 23.7786 46.834C22.751 48.0995 20.8856 48.2935 19.6199 47.2653L13.6435 42.4123C13.0306 41.9145 12.6481 41.2079 12.5665 40.4224C12.4849 39.6371 12.7143 38.867 13.212 38.2539ZM11.1829 48.015C11.6806 47.4021 12.3872 47.0198 13.1729 46.938C13.9258 46.8607 14.6635 47.0705 15.2634 47.5263L17.761 49.5545C17.7893 49.5775 17.8191 49.5965 17.8476 49.6189L21.3176 52.4367C22.5831 53.4644 22.7765 55.33 21.7489 56.5953C20.7212 57.8606 18.8556 58.0542 17.5901 57.0265L11.6139 52.1735C10.3487 51.1461 10.1552 49.2805 11.1829 48.015ZM8.50801 59.9446C8.42663 59.1593 8.65583 58.3891 9.15373 57.776C9.73713 57.0576 10.5908 56.6845 11.4514 56.6845C12.0716 56.6845 12.6941 56.8809 13.2228 57.2783L15.7318 59.3158C15.7605 59.3391 15.7912 59.3586 15.8203 59.3812L19.2887 62.1978C20.5542 63.2254 20.7476 65.0911 19.7199 66.3563C19.222 66.9692 18.5154 67.3518 17.7299 67.4333C16.9446 67.5145 16.1743 67.2853 15.5614 66.7876L9.58519 61.9346C8.9719 61.4369 8.58939 60.73 8.50801 59.9446Z" fill="black"/>
<path d="M14.6072 14.4256C15.4214 14.4256 16.0815 13.7657 16.0815 12.9513V7.90962C16.0815 5.17401 18.3072 2.94849 21.0426 2.94849H53.8519C56.5873 2.94849 58.8128 5.17401 58.8128 7.90962V35.1136C58.8128 35.9279 59.4727 36.5878 60.287 36.5878C61.1014 36.5878 61.7613 35.9279 61.7613 35.1136V7.90962C61.7615 3.54821 58.2133 0 53.8519 0H21.0426C16.6812 0 13.133 3.54821 13.133 7.90962V12.9511C13.133 13.7655 13.7931 14.4256 14.6072 14.4256Z" fill="black"/>
<path d="M95.4244 97.571L85.3667 85.7397C84.8393 85.1193 83.909 85.0441 83.2888 85.5714C82.6684 86.0988 82.593 87.0292 83.1205 87.6494L93.1782 99.4806C93.4697 99.8237 93.8847 100 94.3022 100C94.6397 100 94.979 99.885 95.2563 99.6491C95.8765 99.1217 95.952 98.1912 95.4244 97.571Z" fill="black"/>
<path d="M59.3264 93.4737C59.0976 93.1749 58.7632 92.9752 58.3917 92.915C53.2663 92.0865 49.1207 88.1127 48.0761 83.027L47.5328 80.381C46.918 77.3873 47.4129 74.2763 48.9265 71.621L56.2193 58.8268C57.1677 57.163 57.0197 55.1121 55.8423 53.6014L49.0116 44.8395C47.0131 42.2761 47.1134 38.6377 49.2496 36.1883L49.6147 35.7696C49.8099 35.5457 50.0528 35.5083 50.18 35.5058C50.3105 35.5017 50.5515 35.5315 50.7551 35.7476L57.2731 42.6631C57.8315 43.2558 58.7644 43.2829 59.3573 42.7247C59.9497 42.1662 59.9772 41.2331 59.4188 40.6405L52.9009 33.7251C52.1828 32.963 51.1705 32.5359 50.1232 32.5577C49.0761 32.5779 48.0809 33.042 47.3925 33.8312L47.0275 34.2499C43.965 37.7614 43.8215 42.9771 46.6862 46.6521L53.5169 55.414C53.9568 55.9783 54.0122 56.7447 53.6578 57.3665L46.365 70.1608C44.4967 73.4383 43.8857 77.2786 44.6447 80.974L45.188 83.62C46.437 89.702 51.2784 94.4956 57.3322 95.7187L60.1714 99.4226C60.4618 99.8013 60.8995 100 61.3426 100C61.6553 100 61.9708 99.9008 62.2383 99.6958C62.8846 99.2004 63.0069 98.275 62.5116 97.6289L59.3264 93.4737Z" fill="black"/>
<path d="M77.4799 76.4616C77.1596 76.085 76.9833 75.6054 76.9833 75.1112V67.5212C76.9833 62.2043 74.975 57.1455 71.3283 53.2763L63.73 45.2147C63.1716 44.622 62.2385 44.5949 61.6459 45.1532C61.0534 45.7116 61.0259 46.6447 61.5843 47.2374L69.1826 55.2989C72.3115 58.6187 74.0348 62.9593 74.0348 67.5214V75.1114C74.0348 76.3044 74.4604 77.4622 75.2333 78.3715L79.0376 82.8471C79.3293 83.1901 79.7443 83.3666 80.1618 83.3666C80.4993 83.3666 80.8384 83.2514 81.1159 83.0157C81.7363 82.4881 81.8118 81.558 81.2844 80.9376L77.4799 76.4616Z" fill="black"/>
<path d="M37.7818 16.063C34.0008 16.063 30.925 19.1389 30.925 22.92C30.925 26.7007 34.0008 29.7768 37.7818 29.7768C38.94 29.7768 40.0313 29.4871 40.989 28.9782L43.2524 31.2416C43.5402 31.5294 43.9176 31.6733 44.2948 31.6733C44.672 31.6733 45.0494 31.5294 45.3372 31.2414C45.9129 30.6657 45.9129 29.7324 45.3372 29.1566L43.242 27.0616C44.1175 25.9102 44.6386 24.4752 44.6386 22.9204C44.6388 19.1389 41.5627 16.063 37.7818 16.063ZM33.8735 22.92C33.8735 20.7648 35.6266 19.0115 37.7818 19.0115C39.9369 19.0115 41.6903 20.7648 41.6903 22.92C41.6903 25.0751 39.9369 26.8283 37.7818 26.8283C35.6266 26.8283 33.8735 25.0749 33.8735 22.92Z" fill="black"/>
<path d="M41.5879 66.3654H30.0575C29.8195 66.3654 29.6257 66.1718 29.6257 65.9336V59.6256C29.6257 59.3873 29.8195 59.1937 30.0575 59.1937H44.8562C45.6704 59.1937 46.3304 58.5339 46.3304 57.7195C46.3304 56.9051 45.6704 56.2452 44.8562 56.2452H30.0575C28.1937 56.2452 26.6772 57.7617 26.6772 59.6256V65.9336C26.6772 67.7974 28.1937 69.3139 30.0575 69.3139H41.5879C42.4021 69.3139 43.0621 68.654 43.0621 67.8397C43.0621 67.0253 42.4021 66.3654 41.5879 66.3654Z" fill="black"/>
</g>
<defs>
<clipPath id="clip0">
<rect width="100" height="100" fill="white"/>
</clipPath>
</defs>
</svg>
