<svg width="12" height="12" viewBox="0 0 12 12" fill="none" xmlns="http://www.w3.org/2000/svg">
<path d="M10.855 1.14595C10.8085 1.09908 10.7532 1.06188 10.6923 1.0365C10.6313 1.01112 10.566 0.998047 10.5 0.998047C10.434 0.998047 10.3686 1.01112 10.3077 1.0365C10.2468 1.06188 10.1915 1.09908 10.145 1.14595L7.24997 4.04595V3.25095C7.24997 3.11834 7.19729 2.99116 7.10352 2.89739C7.00975 2.80362 6.88258 2.75095 6.74997 2.75095C6.61736 2.75095 6.49018 2.80362 6.39642 2.89739C6.30265 2.99116 6.24997 3.11834 6.24997 3.25095V5.25095C6.25076 5.31628 6.26435 5.38083 6.28997 5.44095C6.34071 5.56312 6.43779 5.66021 6.55997 5.71095C6.62008 5.73657 6.68463 5.75016 6.74997 5.75095H8.74997C8.88258 5.75095 9.00976 5.69827 9.10352 5.6045C9.19729 5.51073 9.24997 5.38355 9.24997 5.25095C9.24997 5.11834 9.19729 4.99116 9.10352 4.89739C9.00976 4.80362 8.88258 4.75095 8.74997 4.75095H7.95497L10.855 1.85595C10.9018 1.80946 10.939 1.75416 10.9644 1.69323C10.9898 1.6323 11.0029 1.56695 11.0029 1.50095C11.0029 1.43494 10.9898 1.36959 10.9644 1.30866C10.939 1.24773 10.9018 1.19243 10.855 1.14595ZM5.43997 6.29095C5.37986 6.26533 5.31531 6.25174 5.24997 6.25095H3.24997C3.11736 6.25095 2.99018 6.30362 2.89642 6.39739C2.80265 6.49116 2.74997 6.61834 2.74997 6.75095C2.74997 6.88355 2.80265 7.01073 2.89642 7.1045C2.99018 7.19827 3.11736 7.25095 3.24997 7.25095H4.04497L1.14497 10.1459C1.09811 10.1924 1.06091 10.2477 1.03552 10.3087C1.01014 10.3696 0.99707 10.4349 0.99707 10.5009C0.99707 10.567 1.01014 10.6323 1.03552 10.6932C1.06091 10.7542 1.09811 10.8095 1.14497 10.8559C1.19145 10.9028 1.24675 10.94 1.30768 10.9654C1.36861 10.9908 1.43396 11.0038 1.49997 11.0038C1.56598 11.0038 1.63133 10.9908 1.69226 10.9654C1.75319 10.94 1.80849 10.9028 1.85497 10.8559L4.74997 7.95595V8.75095C4.74997 8.88355 4.80265 9.01073 4.89642 9.1045C4.99018 9.19827 5.11736 9.25095 5.24997 9.25095C5.38258 9.25095 5.50975 9.19827 5.60352 9.1045C5.69729 9.01073 5.74997 8.88355 5.74997 8.75095V6.75095C5.74918 6.68561 5.73559 6.62106 5.70997 6.56095C5.65923 6.43877 5.56214 6.34168 5.43997 6.29095Z" fill="white"/>
</svg>
