<svg width="126" height="40" viewBox="0 0 126 40" fill="none" xmlns="http://www.w3.org/2000/svg">
<path d="M68.6729 12.3889C68.6729 13.3818 67.8573 14.2679 66.7937 14.2679C65.978 14.2679 65.2691 14.4808 64.6664 14.9417C63.9929 15.3674 63.461 15.9699 63.0357 16.6434C62.1847 17.7781 61.7598 19.1251 61.5823 19.6211V26.3573C61.5823 27.3855 60.6962 28.2365 59.6325 28.2365C58.6043 28.2365 57.7536 27.3855 57.7536 26.3573V12.3889C57.7536 11.3607 58.6043 10.5453 59.6325 10.5453C60.6962 10.5453 61.5823 11.361 61.5823 12.3889V12.6372C61.7949 12.3889 62.0786 12.1055 62.3268 11.928C63.4969 11.1484 65.0211 10.51 66.7937 10.5453C67.8573 10.5453 68.6729 11.361 68.6729 12.3889Z" fill="#636466"/>
<path d="M67.6332 19.3729C67.6689 14.5514 71.4268 10.5098 76.2835 10.5098C80.8924 10.5098 84.5439 13.9486 84.8278 18.7345V18.9117C84.8278 18.9828 84.8278 19.1597 84.7924 19.2308C84.6857 20.0818 83.9414 20.6491 82.9486 20.6491H71.6748C71.852 21.4647 72.2419 22.3863 72.8803 22.989C73.6248 23.84 75.0429 24.4776 76.2835 24.584C77.5597 24.6902 79.0842 24.3714 79.9706 23.6979C80.7149 22.9177 82.1686 23.0244 82.6295 23.5912C83.0904 24.088 83.4449 25.1516 82.6295 25.8956C80.8921 27.4907 78.8005 28.2355 76.2832 28.2355C71.4268 28.2006 67.6689 24.1944 67.6332 19.3729ZM71.4976 17.6358H81.5305C81.1761 16.2177 79.3679 14.1261 76.2835 13.8779C73.2704 14.0194 71.7812 16.1823 71.4976 17.6358Z" fill="#636466"/>
<path d="M102.889 26.3225C102.889 27.3507 102.038 28.2371 100.974 28.2371C100.017 28.2371 99.2728 27.5636 99.0953 26.7126C97.7483 27.6341 96.0465 28.2371 94.2737 28.2371C89.4878 28.2371 85.6589 24.1955 85.6589 19.4093C85.6589 14.5521 89.4878 10.5105 94.2737 10.5105C96.0111 10.5105 97.7126 11.0776 99.0242 11.9994V5.33455C99.0242 4.30632 99.8752 3.41992 100.974 3.41992C102.038 3.41992 102.889 4.30632 102.889 5.33455V19.3737V19.4093V26.3225H102.889ZM94.274 14.3749C92.9978 14.3749 91.8277 14.9066 90.9419 15.8284C90.0555 16.7148 89.5235 17.9907 89.5235 19.4091C89.5235 20.7561 90.0552 22.0323 90.9419 22.9187C91.8277 23.8408 92.9978 24.3724 94.274 24.3724C95.5856 24.3724 96.7203 23.8408 97.6064 22.9187C98.4925 22.0326 99.0245 20.7561 99.0245 19.4091C99.0245 17.9907 98.4928 16.7148 97.6064 15.8284C96.7203 14.9066 95.5856 14.3749 94.274 14.3749Z" fill="#636466"/>
<path d="M109.635 6.07814C109.635 7.14176 108.82 8.02788 107.72 8.02788C106.657 8.02788 105.806 7.14176 105.806 6.07814V5.33357C105.806 4.26995 106.657 3.41895 107.72 3.41895C108.82 3.41895 109.635 4.26995 109.635 5.33357V6.07814ZM109.635 12.495V26.3215C109.635 27.3851 108.82 28.2361 107.72 28.2361C106.657 28.2361 105.806 27.3851 105.806 26.3215V12.495C105.806 11.3606 106.657 10.545 107.72 10.545C108.82 10.545 109.635 11.3606 109.635 12.495Z" fill="#636466"/>
<path d="M112.071 23.165C112.709 22.3145 113.95 22.2081 114.73 22.8816C115.652 23.6618 117.247 24.4766 118.63 24.4415C119.587 24.4415 120.473 24.1227 121.041 23.768C121.537 23.3425 121.679 22.9883 121.679 22.7043C121.679 22.5271 121.643 22.4563 121.572 22.3496C121.537 22.2435 121.395 22.1016 121.111 21.9247C120.615 21.5699 119.551 21.1798 118.275 20.9318H118.24C117.14 20.7192 116.077 20.4356 115.155 20.0098C114.198 19.5492 113.347 18.911 112.709 17.9539C112.319 17.3157 112.107 16.5358 112.107 15.7204C112.107 14.0895 113.028 12.7068 114.198 11.8204C115.439 10.9697 116.928 10.5088 118.559 10.5088C121.005 10.5088 122.742 11.6789 123.877 12.4585C124.728 13.0259 124.976 14.1959 124.444 15.0818C123.877 15.9328 122.707 16.1811 121.821 15.5783C120.686 14.8341 119.694 14.2664 118.559 14.2664C117.673 14.2664 116.893 14.5501 116.432 14.9046C115.971 15.2239 115.865 15.5429 115.865 15.7202C115.865 15.8617 115.865 15.8974 115.936 16.0036C115.971 16.0744 116.077 16.2162 116.326 16.358C116.787 16.6771 117.708 16.9961 118.914 17.209L118.949 17.2447H118.985C120.155 17.457 121.254 17.7764 122.282 18.2726C123.239 18.6981 124.197 19.3717 124.799 20.3642C125.225 21.0731 125.473 21.8887 125.473 22.7041C125.473 24.4412 124.516 25.8949 123.239 26.8164C121.963 27.7026 120.367 28.2348 118.63 28.2348C115.865 28.1994 113.738 26.9232 112.32 25.7888C111.54 25.1507 111.433 23.9449 112.071 23.165Z" fill="#636466"/>
<path d="M44.8408 30.8436C42.3503 32.1418 29.4486 37.4465 26.7018 38.8783C23.9551 40.3106 22.4292 40.2966 20.2594 39.2593C18.0897 38.222 4.35992 32.6762 1.88672 31.494C0.650528 30.9031 0.000610352 30.4046 0.000610352 29.9336V25.2163C0.000610352 25.2163 17.8749 21.325 20.7607 20.2899C23.6462 19.2545 24.6473 19.2172 27.1029 20.1168C29.5588 21.0163 44.2422 23.6657 46.6693 24.5545C46.6693 24.5545 46.6682 28.7676 46.6682 29.2049C46.6685 29.6713 46.1086 30.183 44.8408 30.8436Z" fill="#A41E11"/>
<path d="M44.8408 26.1247C42.3503 27.4223 29.4485 32.7276 26.7018 34.1593C23.9551 35.5917 22.4292 35.5777 20.2594 34.5404C18.0894 33.5037 4.35989 27.9567 1.88669 26.7751C-0.586506 25.593 -0.638359 24.7793 1.79122 23.8281C4.22053 22.8764 17.8748 17.5194 20.7609 16.484C23.6465 15.4492 24.6475 15.4113 27.1032 16.3112C29.5591 17.2107 42.3838 22.3154 44.8106 23.2043C47.238 24.094 47.3313 24.8265 44.8408 26.1247Z" fill="#D82C20"/>
<path d="M44.8408 23.1511C42.3503 24.4493 29.4486 29.754 26.7018 31.1863C23.9551 32.6181 22.4292 32.6041 20.2594 31.5668C18.0894 30.5301 4.35992 24.9837 1.88672 23.8016C0.650528 23.2106 0.000610352 22.7127 0.000610352 22.2417V17.5238C0.000610352 17.5238 17.8749 13.6328 20.7607 12.5974C23.6462 11.5623 24.6473 11.5247 27.1029 12.4243C29.5588 13.3239 44.2422 15.9727 46.6693 16.8618C46.6693 16.8618 46.6682 21.0749 46.6682 21.5127C46.6685 21.9788 46.1086 22.4905 44.8408 23.1511Z" fill="#A41E11"/>
<path d="M44.8408 18.4321C42.3503 19.7303 29.4485 25.035 26.7018 26.4674C23.9551 27.8992 22.4292 27.8852 20.2594 26.8479C18.0894 25.8111 4.35989 20.2645 1.88669 19.0826C-0.586506 17.9007 -0.638359 17.087 1.79122 16.1354C4.22053 15.1842 17.8748 9.82684 20.7609 8.79175C23.6465 7.75665 24.6475 7.71906 27.1032 8.61863C29.5591 9.5182 42.3838 14.6226 44.8106 15.5118C47.238 16.4012 47.3313 17.134 44.8408 18.4321Z" fill="#D82C20"/>
<path d="M44.8408 15.1731C42.3503 16.4713 29.4486 21.7763 26.7018 23.2086C23.9551 24.6404 22.4292 24.6264 20.2594 23.5891C18.0894 22.5524 4.35992 17.0057 1.88672 15.8238C0.650528 15.2329 0.000610352 14.7347 0.000610352 14.2639V9.54606C0.000610352 9.54606 17.8749 5.65506 20.7607 4.61997C23.6462 3.5846 24.6473 3.54729 27.1029 4.44686C29.5588 5.34643 44.2422 7.99521 46.6693 8.88435C46.6693 8.88435 46.6682 13.0974 46.6682 13.535C46.6685 14.0008 46.1086 14.5125 44.8408 15.1731Z" fill="#A41E11"/>
<path d="M44.8408 10.4544C42.3503 11.7526 29.4485 17.0575 26.7018 18.4896C23.9551 19.9214 22.4292 19.9074 20.2594 18.8704C18.0896 17.8334 4.35989 12.287 1.88669 11.1051C-0.586506 9.92327 -0.638359 9.10929 1.79122 8.15787C4.22053 7.20645 17.8748 1.84963 20.7609 0.814262C23.6465 -0.221107 24.6475 -0.258415 27.1032 0.641429C29.5591 1.541 42.3838 6.64542 44.8106 7.53456C47.238 8.42343 47.3313 9.15648 44.8408 10.4544Z" fill="#D82C20"/>
<path d="M29.4501 5.91113L25.4063 6.33087L24.501 8.50914L23.0388 6.07847L18.3695 5.65873L21.8536 4.40225L20.8084 2.47363L24.0703 3.74932L27.1456 2.74249L26.3144 4.73695L29.4501 5.91113Z" fill="white"/>
<path d="M24.2596 16.4785L16.7124 13.3482L27.527 11.6885L24.2596 16.4785Z" fill="white"/>
<path d="M13.7962 11.6032C16.9884 11.6032 19.5763 10.6 19.5763 9.36261C19.5763 8.12519 16.9884 7.12207 13.7962 7.12207C10.6039 7.12207 8.01608 8.12519 8.01608 9.36261C8.01608 10.6 10.6039 11.6032 13.7962 11.6032Z" fill="white"/>
<path d="M34.2292 6.50684L40.6296 9.03626L34.2347 11.5629L34.2292 6.50684Z" fill="#7A0C00"/>
<path d="M27.1484 9.30786L34.2292 6.50684L34.2347 11.5629L33.5406 11.8345L27.1484 9.30786Z" fill="#AD2115"/>
</svg>
