<svg width="67" height="65" viewBox="0 0 67 65" fill="none" xmlns="http://www.w3.org/2000/svg">
<mask id="mask0" mask-type="alpha" maskUnits="userSpaceOnUse" x="19" y="10" width="31" height="44">
<path d="M43.967 44.0738L45.7763 50.5464H49.5079V53.837H19.5417V50.5464H23.2733L25.0826 44.0738H43.967ZM39.7829 29.3731L41.7052 36.1199H27.344L29.2664 29.3731H39.7829ZM34.5245 10.833L37.5211 21.4195H31.5285L34.5245 10.833Z" fill="white"/>
</mask>
<g mask="url(#mask0)">
<path d="M43.967 44.0738L45.7763 50.5464H49.5079V53.837H19.5417V50.5464H23.2733L25.0826 44.0738H43.967ZM39.7829 29.3731L41.7052 36.1199H27.344L29.2664 29.3731H39.7829ZM34.5245 10.833L37.5211 21.4195H31.5285L34.5245 10.833Z" fill="black"/>
<path d="M67 0H0V65H67V0Z" fill="black"/>
</g>
</svg>
