<svg width="66" height="65" viewBox="0 0 66 65" fill="none" xmlns="http://www.w3.org/2000/svg">
<mask id="mask0" mask-type="alpha" maskUnits="userSpaceOnUse" x="11" y="16" width="44" height="32">
<path d="M33 32.1684C36.4088 32.1684 39.4672 33.6731 41.5276 36.0431C42.9348 35.1353 44.5815 34.6446 46.2898 34.6446C51.0926 34.6446 55 38.4927 55 43.2228V44.5493H34.3469V47.2024H31.6531V44.5493H11V43.2228C11 38.4927 14.9074 34.6446 19.7102 34.6446C21.4185 34.6446 23.0652 35.1353 24.4724 36.0431C26.5328 33.6731 29.5912 32.1684 33 32.1684ZM19.7102 37.2976C16.8557 37.2976 14.459 39.2656 13.8458 41.8963H21.8566C22.0149 40.5988 22.4021 39.3698 22.9775 38.2496C22.0102 37.6314 20.8811 37.2976 19.7102 37.2976ZM31.6531 34.9265C28.0259 35.4956 25.1539 38.3241 24.5761 41.8963H31.6531V34.9265ZM34.3469 34.9265V41.8963H41.4239C40.8461 38.324 37.9741 35.4956 34.3469 34.9265ZM46.2898 37.2976C45.1189 37.2976 43.9898 37.6314 43.0225 38.2496C43.5979 39.3697 43.9851 40.5988 44.1434 41.8963H52.1542C51.541 39.2656 49.1443 37.2976 46.2898 37.2976ZM46.2898 21.3793C49.2606 21.3793 51.6776 23.7596 51.6776 26.6854C51.6776 29.6112 49.2606 31.9915 46.2898 31.9915C43.319 31.9915 40.902 29.6112 40.902 26.6854C40.902 23.7596 43.319 21.3793 46.2898 21.3793ZM19.7102 21.3793C22.681 21.3793 25.098 23.7596 25.098 26.6854C25.098 29.6112 22.681 31.9915 19.7102 31.9915C16.7394 31.9915 14.3224 29.6112 14.3224 26.6854C14.3224 23.7596 16.7394 21.3793 19.7102 21.3793ZM33 16.25C36.7135 16.25 39.7347 19.2254 39.7347 22.8827C39.7347 26.5399 36.7135 29.5153 33 29.5153C29.2865 29.5153 26.2653 26.5399 26.2653 22.8827C26.2653 19.2254 29.2865 16.25 33 16.25ZM46.2898 24.0323C44.8044 24.0323 43.5959 25.2225 43.5959 26.6854C43.5959 28.1483 44.8044 29.3384 46.2898 29.3384C47.7752 29.3384 48.9837 28.1483 48.9837 26.6854C48.9837 25.2225 47.7752 24.0323 46.2898 24.0323ZM19.7102 24.0323C18.2248 24.0323 17.0163 25.2225 17.0163 26.6854C17.0163 28.1483 18.2248 29.3384 19.7102 29.3384C21.1956 29.3384 22.4041 28.1483 22.4041 26.6854C22.4041 25.2225 21.1956 24.0323 19.7102 24.0323ZM33 18.9031C30.7719 18.9031 28.9592 20.6883 28.9592 22.8827C28.9592 25.077 30.7719 26.8622 33 26.8622C35.2281 26.8622 37.0408 25.077 37.0408 22.8827C37.0408 20.6883 35.2281 18.9031 33 18.9031Z" fill="white"/>
</mask>
<g mask="url(#mask0)">
<path d="M66 0H0V65H66V0Z" fill="black"/>
</g>
</svg>
