<svg width="66" height="66" viewBox="0 0 66 66" fill="none" xmlns="http://www.w3.org/2000/svg">
<mask id="mask0" mask-type="alpha" maskUnits="userSpaceOnUse" x="13" y="17" width="40" height="32">
<path d="M48.125 17.875H17.875C15.5968 17.875 13.75 19.7218 13.75 22V44C13.75 46.2782 15.5968 48.125 17.875 48.125H48.125C50.4032 48.125 52.25 46.2782 52.25 44V22C52.25 19.7218 50.4032 17.875 48.125 17.875ZM46.09 20.625L33 29.92L20.075 20.625H46.09ZM49.5 44C49.5 44.7594 48.8844 45.375 48.125 45.375H17.875C17.1156 45.375 16.5 44.7594 16.5 44V22C16.4614 21.8373 16.4614 21.6677 16.5 21.505L33 33.33L49.5 21.615C49.5259 21.742 49.5259 21.873 49.5 22V44Z" fill="white"/>
</mask>
<g mask="url(#mask0)">
<path d="M66 0H0V66H66V0Z" fill="black"/>
</g>
</svg>
