<svg width="66" height="66" viewBox="0 0 66 66" fill="none" xmlns="http://www.w3.org/2000/svg">
<mask id="mask0" mask-type="alpha" maskUnits="userSpaceOnUse" x="19" y="13" width="28" height="40">
<path d="M42.9 17.6828C40.2625 15.095 36.6943 13.6777 33 13.7503C29.2678 13.6478 25.6544 15.0673 22.99 17.6828C20.3883 20.4326 19.0353 24.1334 19.25 27.9128C19.25 34.6503 23.6775 42.5153 32.01 51.2328L33 52.2503L33.99 51.2328C42.405 42.4878 46.695 34.7328 46.75 27.8853C46.9277 24.0992 45.5347 20.4076 42.9 17.6828ZM33 48.2628C25.8225 40.5078 22 33.6328 22 27.8303C21.7965 24.7915 22.8619 21.8044 24.9425 19.5803C27.097 17.4994 30.0068 16.3871 33 16.5003C35.9877 16.402 38.8868 17.5239 41.03 19.6078C43.1253 21.8294 44.2272 24.8075 44.0825 27.8578C44 33.6328 40.2325 40.4803 33 48.2628ZM33 22.0003C29.9624 22.0003 27.5 24.4627 27.5 27.5003C27.5 30.5379 29.9624 33.0003 33 33.0003C36.0376 33.0003 38.5 30.5379 38.5 27.5003C38.5 24.4627 36.0376 22.0003 33 22.0003ZM33 29.8378C32.041 29.8377 31.1769 29.2585 30.8125 28.3714C30.4481 27.4843 30.6556 26.4649 31.3377 25.7908C32.0198 25.1166 33.0415 24.9211 33.9243 25.2958C34.8071 25.6706 35.3762 26.5413 35.365 27.5003C35.3499 28.7957 34.2955 29.8379 33 29.8378Z" fill="white"/>
</mask>
<g mask="url(#mask0)">
<path d="M66 0H0V66H66V0Z" fill="black"/>
</g>
</svg>
