<svg width="46" height="46" viewBox="0 0 46 46" fill="none" xmlns="http://www.w3.org/2000/svg">
<path fill-rule="evenodd" clip-rule="evenodd" d="M23.7978 1.17038L22.6274 0L2.47955e-05 22.6274L22.6275 45.2549L23.7978 44.0845L2.34079 22.6274L23.7978 1.17038Z" fill="#ED2024"/>
</svg>
