<svg width="11" height="20" viewBox="0 0 11 20" fill="none" xmlns="http://www.w3.org/2000/svg">
<g clip-path="url(#clip0)">
<path d="M6.89758 1.29032L7.01855 1.31048H8.69194V3.24597H7.01855C6.92446 3.24597 6.83374 3.25269 6.74637 3.26613C6.65901 3.27957 6.58844 3.30309 6.53468 3.33669C6.48091 3.3703 6.43051 3.40726 6.38347 3.44758C6.33643 3.4879 6.2961 3.52823 6.2625 3.56855C6.2289 3.60887 6.20202 3.65255 6.18186 3.6996C6.16169 3.74664 6.14825 3.78696 6.14153 3.82056L6.12137 3.92137L6.11129 3.99194V7.09677H9.37742L8.91371 9.03226H6.11129V18.7097H4.17581V9.03226H1.59516V7.09677H4.17581V4.09274C4.17581 3.67608 4.22957 3.30309 4.3371 2.97379C4.44462 2.64449 4.58911 2.38575 4.77057 2.19758C4.95202 2.00941 5.13683 1.84812 5.325 1.71371C5.51317 1.5793 5.72151 1.48522 5.95 1.43145C6.1785 1.37769 6.35995 1.34073 6.49436 1.32056C6.62876 1.3004 6.76317 1.29032 6.89758 1.29032ZM6.89758 0C6.06425 0 5.31828 0.201613 4.65968 0.604839C3.47688 1.3172 2.88548 2.47984 2.88548 4.09274V5.80645H1.59516C1.2457 5.80645 0.943281 5.93414 0.687905 6.18952C0.432528 6.44489 0.30484 6.74731 0.30484 7.09677V9.03226C0.30484 9.38172 0.432528 9.68414 0.687905 9.93952C0.943281 10.1949 1.2457 10.3226 1.59516 10.3226H2.88548V18.6895C2.88548 19.0524 3.00981 19.3582 3.25847 19.6069C3.50712 19.8555 3.8129 19.9798 4.17581 19.9798H6.11129C6.46075 19.9798 6.76317 19.8555 7.01855 19.6069C7.27393 19.3582 7.40161 19.0524 7.40161 18.6895V10.3226H8.91371C9.20941 10.3226 9.47151 10.2352 9.7 10.0605C9.92849 9.88575 10.0831 9.66398 10.1637 9.39516L10.6073 7.45968C10.7282 7.04301 10.661 6.66331 10.4056 6.32056C10.1503 5.97782 9.80753 5.80645 9.37742 5.80645H7.40161V4.53629H8.69194C9.0414 4.53629 9.34382 4.4086 9.59919 4.15323C9.85457 3.89785 9.98226 3.59543 9.98226 3.24597V1.31048C9.98226 0.947581 9.85793 0.641801 9.60927 0.393145C9.36062 0.144489 9.06156 0.0201613 8.7121 0.0201613H7.05887C7.00511 0.00672043 6.95134 0 6.89758 0Z" fill="black"/>
</g>
<defs>
<clipPath id="clip0">
<rect width="10.65" height="20" fill="white"/>
</clipPath>
</defs>
</svg>
