<svg width="100" height="100" viewBox="0 0 100 100" fill="none" xmlns="http://www.w3.org/2000/svg">
<path d="M92.6758 33.7893H72.0378C69.8501 33.7893 67.8849 34.7545 66.5417 36.2801C65.2482 34.2006 62.9431 32.8127 60.3189 32.8127H39.6811C37.2877 32.8127 35.159 33.9668 33.8217 35.7475C32.4844 33.9668 30.3557 32.8127 27.9624 32.8127H7.32438C3.28573 32.8127 0.000195312 36.0983 0.000195312 40.1369L0 63.7697C0 66.1927 1.97148 68.1642 4.39451 68.1642C4.90799 68.1642 5.40096 68.0747 5.85935 67.9122V92.3992C5.85935 95.1902 8.17399 97.4609 11.0187 97.4609C13.8636 97.4609 16.1783 95.1463 16.1783 92.3016V80.9653C16.1783 80.1561 15.5226 79.5004 14.7134 79.5004C13.9042 79.5004 13.2486 80.1561 13.2486 80.9653V92.3016C13.2486 93.5311 12.2482 94.5312 11.0187 94.5312C9.81012 94.5312 8.78903 93.5549 8.78903 92.3992V40.1369C8.78903 39.3278 8.13337 38.6721 7.32419 38.6721C6.51501 38.6721 5.85935 39.3278 5.85935 40.1369V63.7697C5.85935 64.5775 5.20213 65.2345 4.39451 65.2345C3.5869 65.2345 2.92968 64.5775 2.92968 63.7697L2.92987 40.1369C2.92987 37.7139 4.90135 35.7424 7.32438 35.7424H27.9624C30.3854 35.7424 32.3569 37.7139 32.3569 40.1369L32.3567 63.7697C32.3567 63.8025 32.3585 63.8347 32.3592 63.8673C32.3567 64.6466 31.727 65.2345 30.8919 65.2345C30.0567 65.2345 29.427 64.6466 29.427 63.8673L29.4268 40.1369C29.4268 39.3278 28.771 38.6721 27.962 38.6721C27.1528 38.6721 26.4972 39.3278 26.4972 40.1369L26.4974 92.3992C26.4974 93.5549 25.4761 94.5312 24.2675 94.5312C23.038 94.5312 22.0378 93.5311 22.0378 92.3016L22.0376 63.7697C22.0376 62.9605 21.3819 62.3048 20.5728 62.3048H14.7134C14.3249 62.3048 13.9525 62.4591 13.6775 62.7337C13.4029 63.0085 13.2486 63.381 13.2486 63.7697L13.2488 75.1059C13.2488 75.9151 13.9046 76.5708 14.7136 76.5708C15.5228 76.5708 16.1785 75.9149 16.1785 75.1059L16.1783 65.2345H19.1079L19.1081 92.3016C19.1081 95.1463 21.4228 97.4609 24.2675 97.4609C27.1124 97.4609 29.427 95.1902 29.427 92.3992V67.9272C29.8835 68.0804 30.3759 68.1642 30.8919 68.1642C32.0426 68.1642 33.0768 67.7524 33.8524 67.0683C34.6268 67.7495 35.6413 68.1642 36.7512 68.1642C37.2647 68.1642 37.7577 68.0747 38.2161 67.9122V92.3992C38.2161 95.1902 40.5307 97.4609 43.3754 97.4609C46.2203 97.4609 48.535 95.1463 48.535 92.3016V65.2345H51.4646L51.4648 92.3016C51.4648 95.1463 53.7795 97.4609 56.6242 97.4609C59.4691 97.4609 61.7837 95.1902 61.7837 92.3992V67.9272C62.2402 68.0804 62.7326 68.1642 63.2486 68.1642C64.1488 68.1642 64.9771 67.9114 65.6665 67.4743C66.4722 68.4886 67.715 69.1407 69.1079 69.1407C69.6214 69.1407 70.1144 69.0513 70.5728 68.8888V93.3758C70.5728 96.1668 72.8874 98.4375 75.7323 98.4375C78.577 98.4375 80.8917 96.1228 80.8917 93.2781L80.8915 66.211H83.8212L83.8213 93.2781C83.8213 96.1228 86.136 98.4375 88.9809 98.4375C91.8256 98.4375 94.1403 96.1668 94.1403 93.3758V68.9038C94.5967 69.0569 95.0891 69.1407 95.6051 69.1407C98.0693 69.1407 99.9996 67.2534 99.9996 64.8439L99.9998 41.1135C100 37.0748 96.7145 33.7893 92.6758 33.7893ZM63.2486 65.2345C62.4136 65.2345 61.7837 64.6466 61.7837 63.8673L61.7835 40.1369C61.7835 39.3278 61.1279 38.6721 60.3187 38.6721C59.5095 38.6721 58.8539 39.3278 58.8539 40.1369L58.8541 92.3992C58.8541 93.5549 57.8328 94.5312 56.6242 94.5312C55.3947 94.5312 54.3945 93.5311 54.3945 92.3016L54.3943 63.7697C54.3943 62.9605 53.7387 62.3048 52.9295 62.3048H47.0701C46.6817 62.3048 46.3092 62.4591 46.0342 62.7337C45.7596 63.0085 45.6053 63.381 45.6053 63.7697L45.6055 92.3016C45.6055 93.5311 44.6051 94.5312 43.3756 94.5312C42.167 94.5312 41.1459 93.5549 41.1459 92.3992L41.1457 40.1369C41.1457 39.3278 40.4899 38.6721 39.6809 38.6721C38.8717 38.6721 38.2161 39.3278 38.2161 40.1369V63.7697C38.2161 64.5775 37.5588 65.2345 36.7512 65.2345C35.9436 65.2345 35.2864 64.5775 35.2864 63.7697L35.2866 40.1369C35.2866 37.7139 37.2581 35.7424 39.6811 35.7424H60.3189C62.7419 35.7424 64.7134 37.7139 64.7134 40.1369H64.7806C64.7378 40.4567 64.7136 40.7822 64.7136 41.1135L64.7134 63.8673C64.7134 64.6466 64.0835 65.2345 63.2486 65.2345ZM97.0701 64.8439C97.0701 65.6232 96.4402 66.211 95.6053 66.211C94.7703 66.211 94.1404 65.6232 94.1404 64.8439L94.1403 41.1135C94.1403 40.3043 93.4846 39.6487 92.6754 39.6487C91.8662 39.6487 91.2106 40.3043 91.2106 41.1135L91.2108 93.3758C91.2108 94.5314 90.1897 95.5078 88.9811 95.5078C87.7516 95.5078 86.7512 94.5076 86.7512 93.2781L86.751 64.7462C86.751 63.937 86.0954 63.2814 85.2862 63.2814H79.4268C79.0384 63.2814 78.6659 63.4357 78.3909 63.7103C78.1163 63.9851 77.962 64.3575 77.962 64.7462L77.9622 93.2781C77.9622 94.5076 76.962 95.5078 75.7325 95.5078C74.5239 95.5078 73.5026 94.5314 73.5026 93.3758L73.5024 41.1135C73.5024 40.3043 72.8468 39.6487 72.0376 39.6487C71.2284 39.6487 70.5728 40.3043 70.5728 41.1135V64.7462C70.5728 65.554 69.9155 66.211 69.1079 66.211C68.3003 66.211 67.6431 65.554 67.6431 64.7462L67.6433 41.1135C67.6433 38.6905 69.6148 36.719 72.0378 36.719H92.6758C95.0988 36.719 97.0703 38.6905 97.0703 41.1135L97.0701 64.8439Z" fill="black"/>
<path d="M8.79004 29.8831H26.3682C27.1773 29.8831 27.833 29.2274 27.833 28.4182V10.8401C27.833 10.0309 27.1773 9.37524 26.3682 9.37524H23.4385V7.42212C23.4385 4.19126 20.81 1.56274 17.5791 1.56274C14.3482 1.56274 11.7197 4.19126 11.7197 7.42212V9.37524H8.79004C7.98086 9.37524 7.3252 10.0309 7.3252 10.8401V28.4182C7.3252 29.2274 7.98086 29.8831 8.79004 29.8831ZM14.6494 7.42212C14.6494 5.80669 15.9637 4.49243 17.5791 4.49243C19.1945 4.49243 20.5088 5.80669 20.5088 7.42212V9.37524H14.6494V7.42212ZM10.2549 12.3049H24.9033V26.9534H10.2549V12.3049Z" fill="black"/>
<path d="M41.1469 29.8831H58.725C59.5342 29.8831 60.1898 29.2274 60.1898 28.4182V10.8401C60.1898 10.0309 59.5342 9.37524 58.725 9.37524H55.7953V7.42212C55.7953 4.19126 53.1668 1.56274 49.9359 1.56274C46.7051 1.56274 44.0766 4.19126 44.0766 7.42212V9.37524H41.1469C40.3377 9.37524 39.682 10.0309 39.682 10.8401V28.4182C39.682 29.2274 40.3377 29.8831 41.1469 29.8831ZM47.0063 7.42212C47.0063 5.80669 48.3205 4.49243 49.9359 4.49243C51.5514 4.49243 52.8656 5.80669 52.8656 7.42212V9.37524H47.0063V7.42212ZM42.6117 12.3049H57.2602V26.9534H42.6117V12.3049Z" fill="black"/>
<path d="M73.5034 30.8596H91.0815C91.8907 30.8596 92.5464 30.204 92.5464 29.3948V11.8167C92.5464 11.0075 91.8907 10.3518 91.0815 10.3518H88.1519V8.39868C88.1519 5.16782 85.5233 2.53931 82.2925 2.53931C79.0616 2.53931 76.4331 5.16782 76.4331 8.39868V10.3518H73.5034C72.6942 10.3518 72.0386 11.0075 72.0386 11.8167V29.3948C72.0386 30.204 72.6942 30.8596 73.5034 30.8596ZM79.3628 8.39868C79.3628 6.78325 80.6771 5.46899 82.2925 5.46899C83.9079 5.46899 85.2222 6.78325 85.2222 8.39868V10.3518H79.3628V8.39868ZM74.9683 13.2815H89.6167V27.9299H74.9683V13.2815Z" fill="black"/>
</svg>
