<svg width="100" height="100" viewBox="0 0 100 100" fill="none" xmlns="http://www.w3.org/2000/svg">
<path d="M51.6666 83.3334H48.3333V86.6667H51.6666V83.3334Z" fill="#FF0000"/>
<path d="M98.3333 86.6667H96.6667V26.6667C96.6667 22.9848 93.6819 20 90 20H80V6.66667C80 2.98479 77.0152 0 73.3333 0H26.6667C22.9848 0 20 2.98479 20 6.66667V20H10C6.31812 20 3.33333 22.9848 3.33333 26.6667V86.6667H1.66667C0.74625 86.6667 0 87.4129 0 88.3333V93.3333C0 97.0152 2.98479 100 6.66667 100H93.3333C97.0152 100 100 97.0152 100 93.3333V88.3333C100 87.4129 99.2537 86.6667 98.3333 86.6667ZM23.3333 6.66667C23.3333 4.82562 24.8256 3.33333 26.6667 3.33333H73.3333C75.1744 3.33333 76.6667 4.82562 76.6667 6.66667V13.3333H23.3333V6.66667ZM23.3333 16.6667H76.6667V65C76.6667 66.841 75.1744 68.3333 73.3333 68.3333H26.6667C24.8256 68.3333 23.3333 66.841 23.3333 65V16.6667ZM26.6667 71.6667H73.3333C77.0152 71.6667 80 68.6819 80 65V30H86.6667V76.6667H13.3333V30H20V65C20 68.6819 22.9848 71.6667 26.6667 71.6667ZM6.66667 26.6667C6.66667 24.8256 8.15896 23.3333 10 23.3333H20V26.6667H11.6667C10.7463 26.6667 10 27.4129 10 28.3333V78.3333C10 79.2537 10.7463 80 11.6667 80H88.3333C89.2537 80 90 79.2537 90 78.3333V28.3333C90 27.4129 89.2537 26.6667 88.3333 26.6667H80V23.3333H90C91.841 23.3333 93.3333 24.8256 93.3333 26.6667V86.6667H65C64.5583 86.6662 64.1344 86.8415 63.8217 87.1533L60.9767 90H39.0233L36.1783 87.1533C35.8656 86.8415 35.4417 86.6662 35 86.6667H6.66667V26.6667ZM96.6667 93.3333C96.6667 95.1744 95.1744 96.6667 93.3333 96.6667H6.66667C4.82562 96.6667 3.33333 95.1744 3.33333 93.3333V90H34.31L37.155 92.845C37.4675 93.1575 37.8913 93.3333 38.3333 93.3333H61.6667C62.1087 93.3333 62.5325 93.1575 62.845 92.845L65.69 90H96.6667V93.3333Z" fill="#FF0000"/>
<path d="M71.6666 53.3334H28.3333V56.6667H71.6666V53.3334Z" fill="#FF0000"/>
<path d="M68.3333 60H28.3333V63.3333H68.3333V60Z" fill="#FF0000"/>
<path d="M71.6666 46.6666H38.3333V50H71.6666V46.6666Z" fill="#FF0000"/>
<path d="M30 6.66663H26.6667V9.99996H30V6.66663Z" fill="#FF0000"/>
<path d="M36.6666 6.66663H33.3333V9.99996H36.6666V6.66663Z" fill="#FF0000"/>
<path d="M43.3333 6.66663H40V9.99996H43.3333V6.66663Z" fill="#FF0000"/>
<path d="M35 46.6666H31.6667V50H35V46.6666Z" fill="#FF0000"/>
<path d="M44.3333 28L42.3333 25.3334L35.6667 30.3334C34.9302 30.8857 34.781 31.9302 35.3333 32.6667C35.4281 32.793 35.5404 32.9052 35.6667 33L42.3333 38L44.3333 35.3334L39.445 31.6667L44.3333 28Z" fill="#FF0000"/>
<path d="M64.6667 30.6667C64.5719 30.5405 64.4596 30.4282 64.3333 30.3334L57.6667 25.3334L55.6667 28L60.555 31.6667L55.6667 35.3334L57.6667 38L64.3333 33C65.0698 32.4477 65.219 31.4032 64.6667 30.6667Z" fill="#FF0000"/>
<path d="M51.7876 22.7178L45.1192 39.3826L48.2139 40.6209L54.8823 23.9561L51.7876 22.7178Z" fill="#FF0000"/>
</svg>
