<svg width="100" height="100" viewBox="0 0 100 100" fill="none" xmlns="http://www.w3.org/2000/svg">
<g clip-path="url(#clip0)">
<path d="M23.3261 96.7868C22.5212 96.7868 21.7825 96.2758 21.498 95.5227C21.2069 94.7518 21.446 93.8458 22.0858 93.3245C22.7286 92.8009 23.6507 92.7413 24.356 93.1763C25.02 93.586 25.3817 94.3835 25.2521 95.153C25.0948 96.0831 24.2712 96.7868 23.3261 96.7868Z" fill="#FF0000"/>
<path d="M98.0315 65.993C96.5194 64.4809 94.509 63.6481 92.3708 63.6481C91.4413 63.6481 90.5358 63.8055 89.6852 64.1077C89.4956 63.937 89.3075 63.7696 89.2354 63.7106C86.0425 61.0991 81.4331 61.3309 78.5136 64.2503L69.2875 73.4766C68.5158 74.2477 65.3668 76.0584 64.4508 76.173H58.8188C57.8311 76.173 57.4428 75.4207 57.3473 75.19C57.2665 74.9947 57.0696 74.3869 57.4346 73.7811L61.8953 72.4891C64.3071 71.7904 66.1686 69.9303 66.875 67.5129C67.5672 65.144 67.0168 62.6311 65.4008 60.7897C65.3254 60.704 65.2481 60.6188 65.1686 60.5348C63.874 59.1679 61.4916 59.0255 56.9467 60.043C53.7444 60.76 50.0442 61.9577 47.504 62.8362C41.989 64.7436 37.7117 68.986 35.8142 74.3441H33.8309V72.8123C33.8309 71.7336 32.9564 70.8592 31.8777 70.8592H1.95311C0.874409 70.8592 0 71.7336 0 72.8123V94.8339C0 95.9126 0.874409 96.787 1.95311 96.787H14.4601C15.5388 96.787 16.4132 95.9126 16.4132 94.8339C16.4132 93.7552 15.5388 92.8808 14.4601 92.8808H3.90623V74.7654H29.9242V94.8339C29.9242 95.9126 30.7986 96.787 31.8774 96.787C32.9561 96.787 33.8305 95.9126 33.8305 94.8339V93.3021H39.6679C45.4111 95.2606 51.3442 96.2472 57.3579 96.2472C58.6778 96.247 60.0022 96.1995 61.3285 96.1044C68.7797 95.5696 75.9107 93.5591 82.5234 90.1286C84.1073 89.307 84.677 88.9136 85.0085 88.5935L97.1078 77.3631C97.1256 77.3467 97.143 77.3299 97.16 77.3129C98.6418 75.8318 99.6482 73.868 99.9217 71.925C100.243 69.6403 99.5717 67.5334 98.0315 65.993ZM81.2755 67.0125C82.6335 65.6543 84.7054 65.4317 86.2981 66.4051L77.4833 75.2197C76.8687 75.8346 76.0511 76.1732 75.1818 76.1732H72.1148L81.2755 67.0125ZM82.28 85.7986C82.2882 85.7904 82.2972 85.7812 82.3073 85.7718C82.2981 85.7808 82.289 85.7896 82.28 85.7986ZM96.0533 71.3815C95.8971 72.4918 95.3032 73.6363 94.4219 74.5268L82.3321 85.7484C82.3302 85.7501 82.3284 85.7517 82.3269 85.7535C82.2521 85.8089 81.9009 86.0517 80.7247 86.6619C68.4607 93.0237 53.896 94.0761 40.7668 89.5501L40.6312 89.5032C40.4263 89.4325 40.2113 89.3966 39.9945 89.3966H33.8305V78.2512H37.2535C38.14 78.2512 38.9154 77.6541 39.1418 76.7969C40.4043 72.018 44.0076 68.1793 48.7804 66.5286C59.2213 62.9178 61.968 63.2354 62.451 63.3514C62.4557 63.3569 62.4608 63.3626 62.4655 63.368C63.2047 64.2104 63.4453 65.3221 63.125 66.4176C62.7953 67.5454 61.9293 68.4125 60.808 68.7373L55.7678 70.1971C55.4514 70.2889 55.1632 70.459 54.9301 70.6922C53.3274 72.2951 52.8706 74.5914 53.738 76.6853C54.6052 78.7791 56.552 80.0797 58.8184 80.0797H75.1818C77.0947 80.0797 78.8929 79.3347 80.2456 77.9822L89.4725 68.7553C90.2467 67.9811 91.2758 67.5547 92.3708 67.5547C93.4655 67.5547 94.4952 67.9813 95.2694 68.7553C95.9403 69.4262 96.2039 70.3098 96.0533 71.3815Z" fill="#FF0000"/>
<path d="M76.0344 27.5532C75.9387 27.5194 75.8451 27.4862 75.7535 27.4536V24.3616C75.782 24.3915 75.807 24.4216 75.8279 24.4513C76.4476 25.3343 77.6658 25.5478 78.5486 24.928C79.4316 24.3085 79.6451 23.0903 79.0254 22.2073C78.3642 21.2651 77.2226 20.462 75.7455 20.1116C75.6564 19.1153 74.8195 18.3345 73.8004 18.3345C72.7383 18.3345 71.874 19.1823 71.8478 20.2384C71.7701 20.2597 71.6918 20.2821 71.6133 20.3058C69.6576 20.895 68.1818 22.7874 68.0246 24.9079C67.868 27.0194 68.9836 28.8499 71.009 29.805C71.2127 29.9011 71.4963 30.022 71.8472 30.163V34.2521C71.5377 34.0886 71.2703 33.8853 71.0734 33.6407C70.3969 32.8005 69.1668 32.6683 68.3271 33.3448C67.4869 34.0214 67.3547 35.2511 68.031 36.0911C69.0277 37.3284 70.4449 38.0431 71.8648 38.3958C71.9937 39.3497 72.8111 40.0851 73.8002 40.0851C74.7408 40.0851 75.5262 39.42 75.7117 38.5343C78.2723 38.0427 80.0644 36.3124 80.3625 33.9663C80.7121 31.2147 78.9322 28.5776 76.0344 27.5532ZM76.4875 33.4743C76.4266 33.9548 76.1238 34.2579 75.7535 34.4487V31.8245C76.3131 32.32 76.5537 32.9536 76.4875 33.4743Z" fill="#FF0000"/>
<path d="M74.002 46.5114C64.4618 46.5114 56.7005 38.75 56.7005 29.21C56.7005 19.6698 64.4618 11.9083 74.002 11.9083C83.5421 11.9083 91.3036 19.6698 91.3036 29.21C91.3036 38.75 83.5419 46.5114 74.002 46.5114ZM74.002 15.8146C66.6159 15.8146 60.6067 21.8237 60.6067 29.21C60.6067 36.5963 66.6159 42.6052 74.002 42.6052C81.3882 42.6052 87.3974 36.5961 87.3974 29.21C87.3974 21.8239 81.3882 15.8146 74.002 15.8146Z" fill="#FF0000"/>
<path d="M74.0021 55.2073C59.6669 55.2073 48.0046 43.5449 48.0046 29.2098C48.0046 14.8748 59.6671 3.21252 74.0021 3.21252C88.337 3.21252 99.9994 14.875 99.9994 29.2098C99.9994 43.5449 88.337 55.2073 74.0021 55.2073ZM74.0021 7.11875C61.821 7.11875 51.9109 17.0288 51.9109 29.2098C51.9109 41.3908 61.821 51.3011 74.0021 51.3011C86.1831 51.3011 96.0932 41.391 96.0932 29.2098C96.0932 17.0287 86.1831 7.11875 74.0021 7.11875Z" fill="#FF0000"/>
</g>
<defs>
<clipPath id="clip0">
<rect width="100" height="100" fill="white"/>
</clipPath>
</defs>
</svg>
