<svg width="20" height="20" viewBox="0 0 20 20" fill="none" xmlns="http://www.w3.org/2000/svg">
<path d="M18.5542 2.02354C18.3169 1.82617 18.0306 1.69683 17.7256 1.64928C17.4207 1.60174 17.1086 1.63777 16.8225 1.75354L1.88833 7.7827C1.56904 7.91412 1.29726 8.13951 1.10903 8.42897C0.92081 8.71843 0.825046 9.05828 0.834448 9.40342C0.84385 9.74857 0.957972 10.0827 1.16167 10.3615C1.36537 10.6403 1.64903 10.8505 1.975 10.9644L4.99583 12.0152L6.67916 17.5835C6.70223 17.6578 6.73562 17.7285 6.77833 17.7935C6.785 17.8035 6.79416 17.8102 6.80083 17.821C6.84994 17.8894 6.90924 17.9498 6.97666 18.0002C6.99548 18.0149 7.01495 18.0288 7.035 18.0419C7.11393 18.0943 7.20133 18.1326 7.29333 18.1552L7.30416 18.156L7.30916 18.1585C7.36485 18.1697 7.42153 18.1753 7.47833 18.1752L7.49333 18.1727C7.57867 18.1713 7.66329 18.1567 7.74416 18.1294C7.76333 18.1227 7.77916 18.1127 7.7975 18.1044C7.85799 18.0796 7.91534 18.0477 7.96833 18.0094C8.01054 17.9735 8.05276 17.9377 8.095 17.9019L10.3467 15.416L13.705 18.0177C14.0006 18.2479 14.3645 18.3731 14.7392 18.3735C15.1319 18.3731 15.5125 18.2376 15.8171 17.9898C16.1218 17.7421 16.332 17.3971 16.4125 17.0127L19.1317 3.6652C19.1932 3.36492 19.1719 3.05356 19.0702 2.76441C18.9685 2.47526 18.7901 2.21918 18.5542 2.02354ZM7.80833 12.2802C7.69292 12.3954 7.61407 12.5421 7.58166 12.7019L7.32333 13.9552L6.67 11.7944L10.0575 10.0302L7.80833 12.2802ZM14.7267 16.7002L10.7575 13.6252C10.5914 13.497 10.3831 13.4362 10.1742 13.4547C9.96523 13.4732 9.77093 13.5698 9.63 13.7252L8.90833 14.521L9.16333 13.2819L15.0658 7.37937C15.2059 7.23847 15.291 7.05217 15.3058 6.85405C15.3206 6.65594 15.2642 6.45906 15.1466 6.29889C15.0291 6.13873 14.8582 6.02582 14.6648 5.98053C14.4713 5.93524 14.2681 5.96054 14.0917 6.05187L5.62083 10.4619L2.51666 9.32604L17.4992 3.33354L14.7267 16.7002Z" fill="black"/>
</svg>
