<?xml version="1.0" encoding="utf-8"?>
<!-- Generator: Adobe Illustrator 23.1.1, SVG Export Plug-In . SVG Version: 6.00 Build 0)  -->
<svg version="1.1" id="Layer_1" xmlns="http://www.w3.org/2000/svg" xmlns:xlink="http://www.w3.org/1999/xlink" x="0px" y="0px"
	 viewBox="0 0 96 96" style="enable-background:new 0 0 96 96;" xml:space="preserve">
<style type="text/css">
	.st0{fill:#FF0000;}
</style>
<path d="M74.2,10h8.1V4.8h-68V10h8.1v19.7L43.8,48L22.4,66.4V86h-8.1v5.2h68V86h-8.1V66.4L52.7,48l21.4-18.4V10z M15.8,8.5V6.3h65
	v2.2h-6.6H22.4C22.4,8.5,15.8,8.5,15.8,8.5z M80.7,87.5v2.2h-65v-2.2h6.6v0h51.8v0H80.7z M72.7,29L50.4,48l22.2,19v19H23.9V67
	l22.2-19L23.9,29V10h48.8L72.7,29L72.7,29z"/>
<rect x="47.5" y="43.6" class="st0" width="1.5" height="16.1"/>
<rect x="47.5" y="63.6" class="st0" width="1.5" height="8.1"/>
<rect x="28" y="65.8" transform="matrix(0.6301 -0.7765 0.7765 0.6301 -38.823 51.5133)" class="st0" width="13.3" height="1.5"/>
<rect x="36.9" y="68.9" transform="matrix(0.4341 -0.9009 0.9009 0.4341 -39.8855 75.7414)" class="st0" width="6.9" height="1.5"/>
<rect x="61.1" y="59.9" transform="matrix(0.7765 -0.6301 0.6301 0.7765 -28.0861 53.8277)" class="st0" width="1.5" height="13.3"/>
<rect x="55.4" y="66.2" transform="matrix(0.9009 -0.4341 0.4341 0.9009 -24.6539 31.2765)" class="st0" width="1.5" height="6.9"/>
<path class="st0" d="M41.2,26.9c0.3,0.4,0.8,0.8,1.3,1c0.6,0.2,1.3,0.4,2,0.4l2.9,0v0.6l0,6.9h-5.3h-0.6v0.8v0.8h5.9l0,3h0.8H49l0-3
	h3.7c2.4,0,3.3-2,3.3-3.9v-2.6c0-0.7-0.1-2.1-1.1-3.1c-0.6-0.6-1.3-0.8-2.2-0.8c0,0,0,0,0,0l-3.5,0H49l0-7.3h5.8h0.6v-0.8v-0.8H49
	l0-3h-0.8h-0.8l0,3h-2.9c-0.8,0-1.5,0.1-2.1,0.4c-0.5,0.2-1,0.6-1.3,1c-0.3,0.4-0.5,0.8-0.6,1.3c-0.1,0.5-0.2,1.1-0.2,1.8v1.2
	c0,0.6,0.1,1.2,0.2,1.8C40.7,26.1,40.9,26.6,41.2,26.9z M41.9,22.6c0-0.5,0.1-1,0.2-1.4c0.1-0.3,0.2-0.6,0.4-0.8
	c0.2-0.2,0.4-0.4,0.8-0.6c0.4-0.2,0.9-0.2,1.4-0.2h2.9l0,7.3l-2.9,0c-0.6,0-1.1-0.1-1.4-0.2c-0.3-0.1-0.6-0.3-0.8-0.6
	c-0.2-0.2-0.3-0.5-0.4-0.8c-0.1-0.4-0.2-0.9-0.2-1.4V22.6z M52.7,28.3c0.5,0,0.9,0.1,1.1,0.4c0.6,0.6,0.6,1.7,0.6,2v2.6
	c0,0.9-0.2,2.4-1.8,2.4H49l0-7.5L52.7,28.3C52.7,28.3,52.7,28.3,52.7,28.3z"/>
</svg>
