<svg width="100" height="100" viewBox="0 0 100 100" fill="none" xmlns="http://www.w3.org/2000/svg">
<g opacity="0.8" clip-path="url(#clip0)">
<path d="M17.8338 13.5216C17.8338 10.8124 15.6304 8.60901 12.9212 8.60901C10.212 8.60901 8.00786 10.8124 8.00786 13.5216C8.00786 16.2308 10.212 18.4342 12.9212 18.4342C15.6296 18.4342 17.8338 16.2308 17.8338 13.5216ZM10.9376 13.5216C10.9376 12.4283 11.8279 11.5387 12.9212 11.5387C14.0145 11.5387 14.9041 12.4283 14.9041 13.5216C14.9041 14.6149 14.0145 15.5045 12.9212 15.5045C11.8279 15.5045 10.9376 14.6149 10.9376 13.5216Z" fill="black"/>
<path d="M24.5926 18.4342C27.3018 18.4342 29.506 16.2308 29.506 13.5216C29.506 10.8124 27.3018 8.60901 24.5926 8.60901C21.8834 8.60901 19.6801 10.8124 19.6801 13.5216C19.6801 16.2308 21.8834 18.4342 24.5926 18.4342ZM24.5926 11.5387C25.6867 11.5387 26.5763 12.4283 26.5763 13.5216C26.5763 14.6149 25.6859 15.5045 24.5926 15.5045C23.4994 15.5045 22.6098 14.6149 22.6098 13.5216C22.6098 12.4283 23.4994 11.5387 24.5926 11.5387Z" fill="black"/>
<path d="M36.2649 18.4342C38.9733 18.4342 41.1774 16.2308 41.1774 13.5216C41.1774 10.8124 38.9733 8.60901 36.2649 8.60901C33.5557 8.60901 31.3515 10.8124 31.3515 13.5216C31.3515 16.2308 33.5557 18.4342 36.2649 18.4342ZM36.2649 11.5387C37.3582 11.5387 38.2478 12.4283 38.2478 13.5216C38.2478 14.6149 37.3582 15.5045 36.2649 15.5045C35.1708 15.5045 34.2812 14.6149 34.2812 13.5216C34.2812 12.4283 35.1708 11.5387 36.2649 11.5387Z" fill="black"/>
<path d="M52.4743 14.9865H88.151C88.9604 14.9865 89.6158 14.3311 89.6158 13.5216C89.6158 12.7121 88.9604 12.0568 88.151 12.0568H52.4743C51.6648 12.0568 51.0095 12.7121 51.0095 13.5216C51.0095 14.3311 51.6648 14.9865 52.4743 14.9865Z" fill="black"/>
<path d="M93.6884 3.32031H5.92118C2.54899 3.32031 -0.195312 6.06385 -0.195312 9.43681V90.9311C-0.195312 94.3033 2.54899 97.0476 5.92118 97.0476H93.6884C97.0606 97.0476 99.8049 94.3033 99.8049 90.9311V9.43681C99.8049 6.06385 97.0606 3.32031 93.6884 3.32031ZM93.6884 94.1179H5.92118C4.16413 94.1179 2.73438 92.6882 2.73438 90.9311V23.7229H10.9001C11.7096 23.7229 12.365 23.0675 12.365 22.258C12.365 21.4493 11.7096 20.7932 10.9001 20.7932H2.73438V9.43681C2.73438 7.67976 4.16413 6.25001 5.92118 6.25001H93.6884C95.4454 6.25001 96.8752 7.67976 96.8752 9.43681V20.7932H16.3689C15.5602 20.7932 14.9041 21.4493 14.9041 22.258C14.9041 23.0675 15.5602 23.7229 16.3689 23.7229H96.8752V90.9311C96.8752 92.6882 95.4454 94.1179 93.6884 94.1179Z" fill="black"/>
<path d="M82.6959 27.3749H69.8938C67.3364 27.3749 65.2559 29.4554 65.2559 32.0128V33.7851C63.7536 34.2619 62.5657 35.4506 62.0904 36.9536L39.2106 37.0398C38.7338 35.5414 37.5474 34.3566 36.0482 33.8805V32.1089C36.0482 29.5515 33.9677 27.471 31.4103 27.471H18.6089C16.0515 27.471 13.971 29.5515 13.971 32.1089V44.9103C13.971 47.4677 16.0515 49.5475 18.6089 49.5475H20.3804C20.8565 51.0489 22.0437 52.2361 23.5451 52.7121V58.6974C23.5451 61.7858 26.0575 64.2982 29.1459 64.2982H42.9444C43.4205 65.7989 44.6076 66.986 46.1083 67.4621V69.3351C46.1083 71.8368 48.1439 73.8723 50.6455 73.8723H52.63C53.0511 75.3402 54.1482 76.5243 55.5612 77.0667C55.14 77.906 54.2718 78.4828 53.2716 78.4828H37.6252C37.246 76.7944 35.9849 75.4363 34.3537 74.9183V73.146C34.3537 70.5886 32.2732 68.5081 29.7158 68.5081H16.9136C14.357 68.5081 12.2765 70.5886 12.2765 73.146V85.9481C12.2765 88.5055 14.357 90.5853 16.9136 90.5853H29.7158C32.2732 90.5853 34.3537 88.5055 34.3537 85.9481V84.1758C35.7178 83.7425 36.8233 82.7224 37.3704 81.4125H53.2716C55.8564 81.4125 58.0301 79.6165 58.6099 77.2071C60.2243 76.7532 61.5007 75.4829 61.9638 73.8723H63.6483C66.1508 73.8723 68.1856 71.8368 68.1856 69.3351V65.4815C68.1856 64.672 67.5302 64.0166 66.7207 64.0166C65.912 64.0166 65.2559 64.672 65.2559 65.4815V69.3351C65.2559 70.2216 64.5349 70.9426 63.6483 70.9426H61.8837C60.3608 66.5725 54.2131 66.6068 52.7093 70.9426H50.6455C49.759 70.9426 49.038 70.2216 49.038 69.3351V67.4621C49.3508 67.3629 49.6461 67.2355 49.9345 67.0745C49.9551 67.0539 52.4278 65.805 52.4278 62.8333C52.4278 60.7284 51.0636 58.8508 49.038 58.2046V56.3323C49.038 55.4458 49.759 54.7248 50.6455 54.7248H63.6483C64.5349 54.7248 65.2559 55.4458 65.2559 56.3323V60.1859C65.2559 60.9946 65.912 61.6508 66.7207 61.6508C67.5302 61.6508 68.1856 60.9946 68.1856 60.1859V56.3323C68.1856 53.8306 66.15 51.7951 63.6483 51.7951H50.6455C48.1439 51.7951 46.1083 53.8306 46.1083 56.3323V58.2046C44.6076 58.6806 43.4205 59.8678 42.9444 61.3685H29.1466C27.6734 61.3685 26.4748 60.1699 26.4748 58.6974V52.7121C27.9755 52.2361 29.1627 51.0489 29.6387 49.5475H31.411C33.9677 49.5475 36.0482 47.4677 36.0482 44.9103V43.138C37.5512 42.6612 38.7391 41.4725 39.2136 39.9695L62.0935 39.8833C62.5703 41.3817 63.7567 42.5673 65.2559 43.0426V44.8149C65.2559 47.3723 67.3364 49.4529 69.8938 49.4529H82.6959C85.2525 49.4529 87.3331 47.3723 87.3331 44.8149V32.0128C87.3331 29.4554 85.2525 27.3749 82.6959 27.3749ZM32.8889 81.472C31.8268 81.472 30.964 80.6083 30.964 79.5471C30.964 78.4858 31.8276 77.6222 32.8889 77.6222C33.9501 77.6222 34.8138 78.4858 34.8138 79.5471C34.8138 80.6083 33.9501 81.472 32.8889 81.472ZM31.424 85.9481C31.424 86.8896 30.658 87.6556 29.7158 87.6556H16.9136C15.9722 87.6556 15.2062 86.8896 15.2062 85.9481V73.146C15.2062 72.2038 15.9722 71.4378 16.9136 71.4378H29.7158C30.658 71.4378 31.424 72.2038 31.424 73.146V74.9183C26.8815 76.3656 26.9341 82.7446 31.424 84.1758V85.9481ZM59.221 72.5417C59.2164 73.5992 58.3551 74.4575 57.2961 74.4575C56.2379 74.4575 55.3765 73.5992 55.372 72.5417C55.6131 69.8982 58.9898 70.0095 59.221 72.5417ZM47.8654 60.9305C48.7886 61.0725 49.4981 61.872 49.4981 62.8333C49.4981 63.8969 48.6329 64.7582 47.5732 64.7582C46.5112 64.7582 45.6483 63.8946 45.6483 62.8333C45.6483 61.6592 46.6973 60.752 47.8654 60.9305ZM34.5834 40.4341C33.5221 40.4341 32.6585 39.5705 32.6585 38.5092C32.6585 37.448 33.5221 36.5843 34.5834 36.5843C35.6446 36.5843 36.5083 37.448 36.5083 38.5092C36.5083 39.5705 35.6454 40.4341 34.5834 40.4341ZM25.01 50.0083C23.8427 50.0083 22.9271 48.9669 23.1072 47.7904C23.2483 46.8673 24.0479 46.1585 25.01 46.1585C26.0705 46.1585 26.9349 47.0206 26.9349 48.0826C26.9349 49.1446 26.0712 50.0083 25.01 50.0083ZM33.1185 44.9103C33.1185 45.8518 32.3525 46.6178 31.4103 46.6178H29.6387C28.8773 44.2397 26.458 42.8321 24.0365 43.3264C24.0159 43.3371 21.2922 43.7697 20.3812 46.6178H18.6089C17.6667 46.6178 16.9007 45.8518 16.9007 44.9103V32.1082C16.9007 31.1667 17.6667 30.3999 18.6089 30.3999H31.411C32.3525 30.3999 33.1185 31.1667 33.1185 32.1082V33.8805C31.0639 34.5351 29.6242 36.4966 29.7349 38.7541C29.7433 38.774 29.7639 42.0684 33.1185 43.138V44.9103ZM66.7207 36.489C67.7797 36.489 68.6456 37.3503 68.6456 38.4139C68.6456 39.4789 67.7781 40.3388 66.7207 40.3388C65.6595 40.3388 64.7958 39.4751 64.7958 38.4139C64.7958 37.3526 65.6595 36.489 66.7207 36.489ZM84.4034 44.8149C84.4034 45.7564 83.6374 46.5232 82.6959 46.5232H69.8938C68.9515 46.5232 68.1856 45.7564 68.1856 44.8149V43.0426C70.2791 42.3758 71.6821 40.3861 71.5692 38.1652V38.1644C71.4677 36.1502 70.1158 34.4 68.1856 33.7851V32.0128C68.1856 31.0713 68.9515 30.3053 69.8938 30.3053H82.6959C83.6374 30.3053 84.4034 31.0713 84.4034 32.0128V44.8149Z" fill="black"/>
</g>
<defs>
<clipPath id="clip0">
<rect width="100" height="100" fill="white"/>
</clipPath>
</defs>
</svg>
