<svg width="67" height="66" viewBox="0 0 67 66" fill="none" xmlns="http://www.w3.org/2000/svg">
<mask id="mask0" mask-type="alpha" maskUnits="userSpaceOnUse" x="16" y="16" width="35" height="34">
<path d="M47.4583 19.25H41.875V16.5H39.0833V19.25H27.9167V16.5H25.125V19.25H19.5417C17.9999 19.25 16.75 20.4812 16.75 22V46.75C16.75 48.2688 17.9999 49.5 19.5417 49.5H47.4583C49.0001 49.5 50.25 48.2688 50.25 46.75V22C50.25 20.4812 49.0001 19.25 47.4583 19.25ZM47.4583 46.75H19.5417V30.25H47.4583V46.75ZM19.5417 27.5V22H25.125V24.75H27.9167V22H39.0833V24.75H41.875V22H47.4583V27.5H19.5417Z" fill="white"/>
</mask>
<g mask="url(#mask0)">
<path d="M67 0H0V66H67V0Z" fill="black"/>
</g>
</svg>
