<svg width="66" height="66" viewBox="0 0 66 66" fill="none" xmlns="http://www.w3.org/2000/svg">
<mask id="mask0" mask-type="alpha" maskUnits="userSpaceOnUse" x="13" y="13" width="40" height="40">
<path d="M33 13.75C43.6315 13.75 52.25 22.3685 52.25 33C52.25 43.6315 43.6315 52.25 33 52.25C22.3685 52.25 13.75 43.6315 13.75 33C13.75 22.3685 22.3685 13.75 33 13.75ZM16.5 33C16.5 42.1127 23.8873 49.5 33 49.5C42.1127 49.5 49.5 42.1127 49.5 33C49.5 23.8873 42.1127 16.5 33 16.5C23.8873 16.5 16.5 23.8873 16.5 33ZM24.75 34.375V31.625H34.375V34.375H24.75ZM31.625 19.25H34.375V31.625H31.625V19.25Z" fill="white"/>
</mask>
<g mask="url(#mask0)">
<path d="M66 0H0V66H66V0Z" fill="black"/>
</g>
</svg>
