<svg width="66" height="65" viewBox="0 0 66 65" fill="none" xmlns="http://www.w3.org/2000/svg">
<mask id="mask0" mask-type="alpha" maskUnits="userSpaceOnUse" x="15" y="12" width="36" height="41">
<path d="M41.8275 12.1875L50.875 21.0979V52.8125H15.125V12.1875H41.8275ZM39.875 14.8958H17.875V50.1042H48.125V23.0208H39.875V14.8958ZM34.375 25.7292V31.1458H39.875V33.8542H34.375V39.2708H31.625V33.8542H26.125V31.1458H31.625V25.7292H34.375ZM42.625 16.8187V20.3125H46.1725L42.625 16.8187Z" fill="white"/>
</mask>
<g mask="url(#mask0)">
<path d="M66 0H0V65H66V0Z" fill="black"/>
</g>
</svg>
