<svg width="66" height="66" viewBox="0 0 66 66" fill="none" xmlns="http://www.w3.org/2000/svg">
<mask id="mask0" mask-type="alpha" maskUnits="userSpaceOnUse" x="19" y="16" width="27" height="35">
<path d="M23.5813 50.875C23.3063 50.875 23.0312 50.875 22.7562 50.6C22.2062 50.325 21.9313 49.5 22.2063 48.95L28.5313 34.925H20.5563C20.0063 34.925 19.7313 34.65 19.4563 34.375C19.1812 33.825 19.1812 33.55 19.4563 33L28.2563 17.325C28.5312 16.775 29.0813 16.5 29.3563 16.5H42.0063C42.5563 16.5 42.8313 16.775 43.1063 17.05C43.3813 17.6 43.3813 17.875 43.1063 18.425L37.6063 27.775H43.6563C44.2063 27.775 44.7563 28.05 45.0313 28.6C45.3063 29.15 45.0313 29.7 44.7563 29.975L24.4063 50.325C24.1313 50.6 23.8563 50.875 23.5813 50.875ZM22.4813 32.175H30.4563C31.0063 32.175 31.2813 32.45 31.5563 32.725C31.8313 33 31.8313 33.55 31.5563 34.1L27.1563 44L40.9063 30.525H35.6813C35.1313 30.525 34.8563 30.25 34.5813 29.975C34.3063 29.425 34.3063 29.15 34.5813 28.6L40.3563 18.975H30.4563L22.4813 32.175Z" fill="white"/>
</mask>
<g mask="url(#mask0)">
<path d="M66 0H0V66H66V0Z" fill="black"/>
</g>
</svg>
