<svg width="66" height="67" viewBox="0 0 66 67" fill="none" xmlns="http://www.w3.org/2000/svg">
<mask id="mask0" mask-type="alpha" maskUnits="userSpaceOnUse" x="16" y="16" width="34" height="35">
<path d="M46.74 38.4134C45.1511 38.2078 43.5914 37.8143 42.0925 37.2409C40.8739 36.7854 39.5061 37.0783 38.5725 37.9946L36.4825 40.1442C32.3309 37.7435 28.8923 34.2528 26.5275 30.0384L28.645 27.9167C29.5309 26.9714 29.818 25.6007 29.3875 24.3713C28.771 22.8187 28.3372 21.1976 28.095 19.5417C27.7791 17.9159 26.3724 16.7454 24.74 16.75H19.8175C18.8795 16.7489 17.9831 17.1432 17.3425 17.8388C16.7216 18.5376 16.4217 19.471 16.5175 20.4071C17.0495 25.6058 18.7935 30.6011 21.605 34.9796C24.1549 39.0472 27.5532 42.497 31.56 45.0854C35.8788 47.9073 40.7828 49.675 45.8875 50.2501H46.1625C46.999 50.2558 47.806 49.9361 48.4175 49.3567C49.1041 48.719 49.4936 47.8168 49.49 46.8721V41.875C49.5564 40.1849 48.3812 38.7056 46.74 38.4134ZM46.7401 46.7884C46.7423 46.9505 46.6714 47.1047 46.5475 47.2071C46.4332 47.3064 46.2852 47.3565 46.135 47.3467C41.4604 46.8684 36.9599 45.2913 32.99 42.7404C29.3391 40.3669 26.2421 37.2134 23.915 33.5C21.3537 29.4825 19.7528 24.9129 19.24 20.1559C19.1978 20.0196 19.1978 19.8734 19.24 19.7371C19.3762 19.5599 19.6038 19.4829 19.8175 19.5417H24.74C25.0246 19.524 25.2753 19.73 25.3175 20.0163C25.5654 21.837 26.008 23.625 26.6375 25.3484C26.7467 25.5281 26.7467 25.7549 26.6375 25.9346L22.98 29.5917L24.025 31.4342C26.645 36.0857 30.4429 39.9412 35.025 42.6009L36.8675 43.6338L40.4425 40.0046C40.6237 39.874 40.8664 39.874 41.0475 40.0046C42.7412 40.6508 44.5043 41.0912 46.3 41.3167C46.5493 41.388 46.7262 41.6125 46.7401 41.875V46.7884Z" fill="white"/>
</mask>
<g mask="url(#mask0)">
<path d="M66 0H0V67H66V0Z" fill="black"/>
</g>
</svg>
