<svg width="65" height="67" viewBox="0 0 65 67" fill="none" xmlns="http://www.w3.org/2000/svg">
<mask id="mask0" mask-type="alpha" maskUnits="userSpaceOnUse" x="10" y="16" width="45" height="35">
<path d="M47.208 17.0222C47.5601 16.6593 48.1325 16.6593 48.4846 17.0222C48.8367 17.3851 48.8367 17.9751 48.4846 18.338L43.2054 23.7786C49.3792 27.3927 53.7588 32.6616 53.9518 32.8975C54.2371 33.2455 54.2389 33.7536 53.9537 34.0998C53.5366 34.6079 43.6242 46.5264 32.5002 46.5264C29.1978 46.5264 25.8791 45.7113 22.6382 44.0977L23.224 44.3735L17.7903 49.9768C17.6589 50.1123 17.4961 50.1974 17.3254 50.2315L17.1529 50.2486C16.9218 50.2486 16.6907 50.1573 16.5138 49.9768C16.1617 49.6139 16.1617 49.0239 16.5138 48.661L47.208 17.0222ZM41.8763 25.1473L38.2073 28.935C39.19 30.2334 39.7222 31.8238 39.7222 33.4987C39.7222 37.6043 36.4831 40.9431 32.5001 40.9431C30.8752 40.9431 29.3323 40.3944 28.0727 39.3815L24.5957 42.9673C27.2126 44.0953 29.8652 44.6654 32.5001 44.6654C41.4285 44.6654 49.8983 35.9014 52.0505 33.4987C50.6332 31.9205 46.4876 27.599 41.2985 24.8297L41.8763 25.1473ZM32.5001 20.4708C34.3761 20.4708 36.3694 20.83 38.4241 21.5428C38.8971 21.7067 39.1499 22.2333 38.991 22.7209C38.8339 23.2104 38.3211 23.4803 37.8481 23.3053C35.9812 22.6596 34.181 22.332 32.5001 22.332C23.5066 22.332 14.9808 31.2225 12.9026 33.5489C13.8758 34.8275 16.4758 37.9709 20.2747 40.5745C20.69 40.8575 20.8037 41.4363 20.5275 41.8624C20.3542 42.136 20.0671 42.2812 19.7764 42.2812C19.603 42.2812 19.4315 42.2309 19.278 42.1249C14.1051 38.5831 11.1205 34.2151 10.996 34.0309C10.7612 33.6829 10.7829 33.2176 11.0465 32.8975C11.4636 32.3894 21.376 20.4708 32.5001 20.4708ZM36.9146 30.2622L29.3603 38.0497C30.2702 38.7205 31.3576 39.082 32.5001 39.082C35.4864 39.082 37.9167 36.5769 37.9167 33.4986C37.9167 32.321 37.565 31.2002 36.9146 30.2622ZM32.5001 26.0542C32.9298 26.0542 33.3486 26.1082 33.7585 26.1826C34.2479 26.2719 34.5764 26.7558 34.4898 27.2602C34.4031 27.7645 33.9246 28.1144 33.4443 28.0139C33.1375 27.9581 32.8251 27.9152 32.5001 27.9152C29.5137 27.9152 27.0834 30.4203 27.0834 33.4986C27.0834 33.8336 27.125 34.1555 27.1809 34.4719C27.2676 34.9762 26.9389 35.4601 26.4497 35.5495C26.3955 35.5606 26.3432 35.5644 26.2908 35.5644C25.8629 35.5644 25.4819 35.2461 25.4043 34.7957C25.3303 34.3733 25.2779 33.9415 25.2779 33.4986C25.2779 29.393 28.5171 26.0542 32.5001 26.0542Z" fill="white"/>
</mask>
<g mask="url(#mask0)">
<path d="M65 0H0V67H65V0Z" fill="black"/>
</g>
</svg>
