<svg width="66" height="65" viewBox="0 0 66 65" fill="none" xmlns="http://www.w3.org/2000/svg">
<mask id="mask0" mask-type="alpha" maskUnits="userSpaceOnUse" x="16" y="16" width="34" height="33">
<path d="M27.1975 31.5521L31.625 35.9125V16.25H34.375V35.9667L38.8575 31.5521L40.81 33.475L33.0275 41.1396L25.245 33.475L27.1975 31.5521ZM46.75 21.6666C48.1772 21.661 49.3716 22.7314 49.5 24.1312V46.2854C49.3716 47.6853 48.1772 48.7557 46.75 48.75H19.25C17.8228 48.7557 16.6284 47.6853 16.5 46.2854V24.1312C16.6284 22.7314 17.8228 21.661 19.25 21.6666H28.875V24.375H19.25V46.0416H46.75V24.375H37.125V21.6666H46.75Z" fill="white"/>
</mask>
<g mask="url(#mask0)">
<path d="M66 0H0V65H66V0Z" fill="black"/>
</g>
</svg>
