<svg width="65" height="67" viewBox="0 0 65 67" fill="none" xmlns="http://www.w3.org/2000/svg">
<mask id="mask0" mask-type="alpha" maskUnits="userSpaceOnUse" x="13" y="15" width="39" height="35">
<path d="M14.2433 32.266L23.5158 37.0295C23.8744 37.2119 24.2978 37.1988 24.6407 36.992L32.8941 32.0462L27.8984 36.6093C27.6441 36.8422 27.4987 37.1744 27.4987 37.5245V48.6392C27.4987 49.8117 28.9506 50.3052 29.6316 49.3736L33.6398 43.8806L43.5521 49.6993C44.2473 50.1114 45.1384 49.6977 45.2995 48.8786L51.4817 17.1225C51.6665 16.1681 50.7455 15.3897 49.8891 15.7447L14.3413 30.035C13.387 30.4193 13.3254 31.7954 14.2433 32.266ZM48.7327 18.8324L43.2994 46.7403L33.9068 41.2262C33.3949 40.9249 32.7361 41.0584 32.3727 41.5535L29.8686 44.9848V38.0733L43.3783 25.7357C44.4479 24.7602 43.2188 23.0258 41.9975 23.7652L24.0024 34.5492L17.6954 31.3101L48.7327 18.8324Z" fill="white"/>
</mask>
<g mask="url(#mask0)">
<path d="M14.2433 32.266L23.5158 37.0295C23.8744 37.2119 24.2978 37.1988 24.6407 36.992L32.8941 32.0462L27.8984 36.6093C27.6441 36.8422 27.4987 37.1744 27.4987 37.5245V48.6392C27.4987 49.8117 28.9506 50.3052 29.6316 49.3736L33.6398 43.8806L43.5521 49.6993C44.2473 50.1114 45.1384 49.6977 45.2995 48.8786L51.4817 17.1225C51.6665 16.1681 50.7455 15.3897 49.8891 15.7447L14.3413 30.035C13.387 30.4193 13.3254 31.7954 14.2433 32.266ZM48.7327 18.8324L43.2994 46.7403L33.9068 41.2262C33.3949 40.9249 32.7361 41.0584 32.3727 41.5535L29.8686 44.9848V38.0733L43.3783 25.7357C44.4479 24.7602 43.2188 23.0258 41.9975 23.7652L24.0024 34.5492L17.6954 31.3101L48.7327 18.8324Z" fill="black"/>
<path d="M65.0472 -1.09277H0.0472412V65.9072H65.0472V-1.09277Z" fill="black"/>
</g>
</svg>
