<svg width="66" height="66" viewBox="0 0 66 66" fill="none" xmlns="http://www.w3.org/2000/svg">
<mask id="mask0" mask-type="alpha" maskUnits="userSpaceOnUse" x="13" y="13" width="40" height="40">
<path d="M33.2751 52.2496C44.0001 51.9746 52.5251 43.4496 52.2501 32.7246C51.9751 21.9996 43.4501 13.4746 32.7251 13.7496C22.0001 14.0246 13.4751 22.5496 13.7501 33.2746C14.0251 43.9996 22.5501 52.5246 33.2751 52.2496ZM32.7251 16.4996C41.8001 16.4996 49.2251 23.6496 49.5001 32.7246C49.5001 41.7996 42.3501 49.2246 33.2751 49.4996C24.2001 49.7746 16.7751 42.3496 16.5001 33.2746C16.5001 24.1996 23.6501 16.4996 32.7251 16.4996ZM34.3751 24.7496H31.6251V31.6246H24.7501V34.3746H31.6251V41.2496H34.3751V34.3746H41.2501V31.6246H34.3751V24.7496Z" fill="white"/>
</mask>
<g mask="url(#mask0)">
<path d="M66 0H0V66H66V0Z" fill="black"/>
</g>
</svg>
