<svg width="66" height="66" viewBox="0 0 66 66" fill="none" xmlns="http://www.w3.org/2000/svg">
<mask id="mask0" mask-type="alpha" maskUnits="userSpaceOnUse" x="16" y="13" width="34" height="40">
<path d="M46.5025 45.3748L44.99 28.8748C44.6081 24.3956 41.7363 20.5133 37.565 18.8373V18.1498C37.565 15.6438 35.5335 13.6123 33.0275 13.6123C30.5215 13.6123 28.49 15.6438 28.49 18.1498V18.7823C24.3187 20.4583 21.4469 24.3406 21.065 28.8198L19.5525 45.3198H16.5V48.0698H49.5V45.3198L46.5025 45.3748ZM33 16.4998C33.8877 16.5049 34.6371 17.1607 34.76 18.0398C34.178 17.9427 33.5899 17.8876 33 17.8748C32.4101 17.8876 31.822 17.9427 31.24 18.0398C31.3629 17.1607 32.1123 16.5049 33 16.4998ZM22.2475 45.3748L23.7325 29.0673C24.1058 24.2253 28.1436 20.4868 33 20.4868C37.8564 20.4868 41.8942 24.2253 42.2675 29.0673L43.7525 45.3748H22.2475ZM28.875 49.4998H37.07V52.2498H28.875V49.4998Z" fill="white"/>
</mask>
<g mask="url(#mask0)">
<path d="M66 0H0V66H66V0Z" fill="black"/>
</g>
</svg>
