<svg width="65" height="65" viewBox="0 0 65 65" fill="none" xmlns="http://www.w3.org/2000/svg">
<mask id="mask0" mask-type="alpha" maskUnits="userSpaceOnUse" x="16" y="13" width="33" height="39">
<path d="M36.3192 51.4587H22.1745C18.9076 51.4587 16.25 48.801 16.25 45.5342V25.465C16.25 22.1982 18.9076 19.5405 22.1745 19.5405H36.3192C39.586 19.5405 42.2436 22.1982 42.2436 25.465V45.5342C42.2436 48.801 39.586 51.4587 36.3192 51.4587ZM22.1745 22.5028C20.5412 22.5028 19.2122 23.8317 19.2122 25.465V45.5342C19.2122 47.1675 20.5412 48.4964 22.1745 48.4964H36.3192C37.9525 48.4964 39.2814 47.1675 39.2814 45.5342V25.465C39.2814 23.8317 37.9525 22.5028 36.3192 22.5028H22.1745ZM48.1681 41.8314V19.4665C48.1681 16.1996 45.5105 13.542 42.2436 13.542H25.8032C24.9851 13.542 24.3221 14.205 24.3221 15.0231C24.3221 15.8412 24.9851 16.5042 25.8032 16.5042H42.2436C43.8769 16.5042 45.2059 17.8332 45.2059 19.4665V41.8314C45.2059 42.6495 45.8689 43.3125 46.687 43.3125C47.5051 43.3125 48.1681 42.6495 48.1681 41.8314Z" fill="white"/>
</mask>
<g mask="url(#mask0)">
<path d="M36.3192 51.4587H22.1745C18.9076 51.4587 16.25 48.801 16.25 45.5342V25.465C16.25 22.1982 18.9076 19.5405 22.1745 19.5405H36.3192C39.586 19.5405 42.2436 22.1982 42.2436 25.465V45.5342C42.2436 48.801 39.586 51.4587 36.3192 51.4587ZM22.1745 22.5028C20.5412 22.5028 19.2122 23.8317 19.2122 25.465V45.5342C19.2122 47.1675 20.5412 48.4964 22.1745 48.4964H36.3192C37.9525 48.4964 39.2814 47.1675 39.2814 45.5342V25.465C39.2814 23.8317 37.9525 22.5028 36.3192 22.5028H22.1745ZM48.1681 41.8314V19.4665C48.1681 16.1996 45.5105 13.542 42.2436 13.542H25.8032C24.9851 13.542 24.3221 14.205 24.3221 15.0231C24.3221 15.8412 24.9851 16.5042 25.8032 16.5042H42.2436C43.8769 16.5042 45.2059 17.8332 45.2059 19.4665V41.8314C45.2059 42.6495 45.8689 43.3125 46.687 43.3125C47.5051 43.3125 48.1681 42.6495 48.1681 41.8314Z" fill="black"/>
<path d="M65 0H0V65H65V0Z" fill="black"/>
</g>
</svg>
