<svg width="66" height="66" viewBox="0 0 66 66" fill="none" xmlns="http://www.w3.org/2000/svg">
<mask id="mask0" mask-type="alpha" maskUnits="userSpaceOnUse" x="16" y="8" width="35" height="47">
<path d="M33.6368 33C43.0861 33 50.7737 40.6876 50.7737 50.1368V51.5263H35.0263V54.3053H32.2474V51.5263H16.5V50.1368C16.5 40.6876 24.1876 33 33.6368 33ZM35.0263 35.8457V38.5579H32.2474V35.8457C25.4372 36.5027 20.0027 41.9372 19.3456 48.7474H32.2474V41.3368H35.0263V48.7474H47.928C47.271 41.9372 41.8365 36.5027 35.0263 35.8457ZM36.6218 8.25C39.1737 8.25 41.25 10.3256 41.25 12.8782V14.6218H41.401C44.831 14.6218 47.6218 17.4125 47.6218 20.8426C47.6218 24.2734 44.831 27.0641 41.401 27.0641H41.25V28.8077C41.25 29.604 40.6047 30.25 39.8077 30.25H36.6218C35.8247 30.25 35.1795 29.604 35.1795 28.8077C35.1795 28.0106 35.8247 27.3653 36.6218 27.3653H38.3653V12.8782C38.3653 11.9167 37.5833 11.1347 36.6218 11.1347H30.25C29.2884 11.1347 28.5064 11.9167 28.5064 12.8782V25.6218C28.5064 26.4181 27.8604 27.0641 27.0641 27.0641H25.4708C22.0408 27.0641 19.25 24.2734 19.25 20.8426C19.25 17.4125 22.0408 14.6218 25.4708 14.6218H25.6218V12.8782C25.6218 10.3256 27.6981 8.25 30.25 8.25H36.6218ZM25.6218 17.5064H25.4708C23.6311 17.5064 22.1339 19.0029 22.1339 20.8426C22.1339 22.6823 23.6311 24.1795 25.4708 24.1795H25.6218V17.5064ZM41.401 17.5064H41.25V24.1795H41.401C43.2407 24.1795 44.7371 22.683 44.7371 20.8426C44.7371 19.0029 43.2407 17.5064 41.401 17.5064Z" fill="white"/>
</mask>
<g mask="url(#mask0)">
<path d="M66 0H0V66H66V0Z" fill="black"/>
</g>
</svg>
