<svg width="66" height="67" viewBox="0 0 66 67" fill="none" xmlns="http://www.w3.org/2000/svg">
<mask id="mask0" mask-type="alpha" maskUnits="userSpaceOnUse" x="13" y="13" width="42" height="43">
<path d="M49.3876 20.6987V13.958H18.7791V20.6987L13.75 25.318V50.0013H27.8265L34.0834 55.833L40.3402 50.0013H54.4167V25.318L49.3876 20.6987ZM43.434 16.4855L36.2441 20.635H31.9225L24.7327 16.4855H43.434ZM46.8977 17.3939V20.6987L41.0127 26.1043L38.3805 22.3095L46.8977 17.3939ZM37.7803 25.8342L35.8451 28.624H32.3216L30.3864 25.8342L32.2396 23.1625H35.9271L37.7803 25.8342ZM21.2689 17.3939L29.7861 22.3095L27.1538 26.1043L21.2689 20.6987V17.3939ZM27.2717 47.4736H16.2398V26.4396L20.024 22.9637L27.5697 29.8949L28.8638 28.0292L30.3578 30.1829L27.2717 47.4736ZM34.0834 52.4017L29.6586 48.2776L32.7153 31.1517H35.4516L38.5083 48.2776L34.0834 52.4017ZM40.895 47.4738L37.8089 30.183L39.3029 28.0293L40.597 29.8951L48.1427 22.9639L51.9269 26.4398V47.4738H40.895Z" fill="white"/>
</mask>
<g mask="url(#mask0)">
<path d="M66 0H0V67H66V0Z" fill="black"/>
</g>
</svg>
