<svg width="189" height="42" viewBox="0 0 189 42" fill="none" xmlns="http://www.w3.org/2000/svg">
<path d="M26.5366 6.28491V34.8883C26.5366 38.0888 28.6167 39.8722 30.8233 39.8722C32.8646 39.8722 35.11 38.3553 35.11 34.8883V6.5016C35.11 3.56759 33.0688 1.73438 30.8233 1.73438C28.5779 1.73438 26.5366 3.75611 26.5366 6.28491Z" fill="#F9AB00"/>
<path d="M15.3096 20.8044V34.8891C15.3096 38.0896 17.3896 39.8729 19.5963 39.8729C21.6376 39.8729 23.883 38.3561 23.883 34.8891V21.021C23.883 18.0871 21.8417 16.2539 19.5963 16.2539C17.3509 16.2539 15.3096 18.2756 15.3096 20.8044Z" fill="#E37400"/>
<path d="M8.36922 39.8726C10.7367 39.8726 12.6559 37.8352 12.6559 35.322C12.6559 32.8088 10.7367 30.7715 8.36922 30.7715C6.00174 30.7715 4.08252 32.8088 4.08252 35.322C4.08252 37.8352 6.00174 39.8726 8.36922 39.8726Z" fill="#E37400"/>
<path d="M123.133 17.8881L125.427 24.2849H120.983L123.133 17.8881ZM122.273 15.7559L117.255 29.7678H119.119L120.409 25.9602H126.001L127.291 29.7678H129.155L124.137 15.7559H122.273Z" fill="#757575"/>
<path d="M149.37 29.7678H151.091V15.7559H149.37V29.7678Z" fill="#757575"/>
<path d="M131.735 21.5425C132.309 20.6287 133.456 19.8672 134.603 19.8672C136.897 19.8672 138.044 21.5425 138.044 23.9794V29.9193H136.323V24.284C136.323 22.3041 135.32 21.5425 134.029 21.5425C132.596 21.5425 131.592 23.0656 131.592 24.4363V29.767H129.872V20.0195H131.592L131.735 21.5425Z" fill="#757575"/>
<path d="M139.478 26.8732C139.478 24.741 141.341 23.5225 143.492 23.5225C144.782 23.5225 145.643 23.8271 145.929 24.1317V23.8271C145.929 22.3041 144.782 21.5425 143.635 21.5425C142.632 21.5425 141.772 21.9995 141.485 22.9133L139.908 22.1518C140.194 21.2379 141.341 19.8672 143.635 19.8672C145.786 19.8672 147.65 21.2379 147.65 23.9794V29.767H146.073V28.3963H145.929C145.499 29.1578 144.496 30.0717 142.919 30.0717C141.055 30.0717 139.478 28.8532 139.478 26.8732ZM145.929 25.6548C145.929 25.6548 145.212 25.0456 143.779 25.0456C142.058 25.0456 141.341 26.1117 141.341 26.8732C141.341 27.9394 142.345 28.3963 143.205 28.3963C144.496 28.3963 145.929 27.1778 145.929 25.6548Z" fill="#757575"/>
<path fill-rule="evenodd" clip-rule="evenodd" d="M153.528 34.0316L155.535 29.0056L151.951 20.1719H153.672L156.396 26.8733L159.12 20.1719H160.84L155.249 34.0316H153.528Z" fill="#757575"/>
<path fill-rule="evenodd" clip-rule="evenodd" d="M178.762 23.3721C178.332 22.1536 177.328 21.3921 176.324 21.3921C174.891 21.3921 173.6 22.7628 173.6 24.7428C173.6 26.7228 174.891 28.0935 176.324 28.0935C177.328 28.0935 178.332 27.332 178.762 26.2658L180.195 27.1797C179.479 28.855 178.045 29.9211 176.324 29.9211C173.887 29.9211 171.88 27.6366 171.88 24.7428C171.88 21.6967 173.887 19.5645 176.324 19.5645C178.045 19.5645 179.479 20.6306 180.195 22.3059L178.762 23.3721Z" fill="#757575"/>
<path d="M184.927 30.0736C187.221 30.0736 188.368 28.7029 188.368 27.0275C188.368 23.3721 183.35 24.7429 183.35 22.6106C183.35 21.8491 183.923 21.3922 184.927 21.3922C185.93 21.3922 186.934 21.8491 187.364 22.6106L188.368 21.5445C187.794 20.7829 186.217 19.7168 184.783 19.7168C182.633 19.7168 181.486 21.0876 181.486 22.7629C181.486 26.266 186.647 25.0475 186.647 26.8752C186.647 27.789 186.074 28.3982 184.927 28.3982C183.78 28.3982 183.206 27.6367 182.633 26.8752L181.342 27.9413C182.203 28.8552 183.493 30.0736 184.927 30.0736Z" fill="#757575"/>
<path d="M168.582 29.7686H170.302V20.0215H168.582V29.7686Z" fill="#757575"/>
<path fill-rule="evenodd" clip-rule="evenodd" d="M169.299 15.2969C170.016 15.2969 170.446 15.9061 170.446 16.5153C170.446 17.2768 169.873 17.7338 169.299 17.7338C168.726 17.7338 168.152 17.1245 168.152 16.5153C168.152 15.9061 168.726 15.2969 169.299 15.2969Z" fill="#757575"/>
<path fill-rule="evenodd" clip-rule="evenodd" d="M166.862 28.245L167.148 29.6157C166.575 29.6157 166.001 29.6157 165.428 29.6157C163.851 29.6157 163.134 28.3973 163.134 26.5697V21.8483H161.414V20.0207H163.134V17.127H164.855V20.0207H166.862V21.8483H164.855V26.8743C164.855 28.245 165.858 28.245 166.862 28.245Z" fill="#757575"/>
<path d="M61.1962 21.3907V23.6752H66.2143C66.0709 24.8937 65.6408 25.8075 65.0673 26.4167C64.3504 27.1782 63.2034 28.0921 61.1962 28.0921C58.1854 28.0921 55.7481 25.5029 55.7481 22.1522C55.7481 18.9538 58.1854 16.2123 61.1962 16.2123C62.9167 16.2123 64.0637 16.9738 64.9239 17.7353L66.3576 16.2123C65.0673 14.9939 63.4902 13.9277 61.1962 13.9277C57.0384 13.9277 53.4541 17.583 53.4541 21.9999C53.4541 26.4167 57.0384 30.072 61.1962 30.072C63.4902 30.072 65.2107 29.3105 66.501 27.7875C67.9347 26.2644 68.3649 24.2845 68.3649 22.6091C68.3649 22.1522 68.3649 21.543 68.2215 21.2384H61.1962V21.3907Z" fill="#757575"/>
<path d="M73.9567 19.5645C71.2326 19.5645 69.082 21.6967 69.082 24.7428C69.082 27.7889 71.2326 29.9211 73.9567 29.9211C76.6808 29.9211 78.8314 27.6366 78.8314 24.7428C78.8314 21.6967 76.6808 19.5645 73.9567 19.5645ZM73.9567 27.9412C72.523 27.9412 71.2326 26.5705 71.2326 24.7428C71.2326 22.9152 72.523 21.5444 73.9567 21.5444C75.3904 21.5444 76.6808 22.7628 76.6808 24.7428C76.6808 26.7228 75.3904 27.9412 73.9567 27.9412Z" fill="#757575"/>
<path d="M97.4692 20.6286C96.8957 20.0194 96.0355 19.4102 94.7451 19.4102C92.3078 19.4102 90.1572 21.6947 90.1572 24.5885C90.1572 27.4823 92.3078 29.7668 94.7451 29.7668C95.8921 29.7668 96.8957 29.1576 97.3259 28.5484H97.4692V29.3099C97.4692 31.2899 96.4656 32.356 94.8885 32.356C93.5982 32.356 92.7379 31.2899 92.4512 30.5283L90.5873 31.2899C91.1608 32.6606 92.5946 34.3359 94.8885 34.3359C97.4692 34.3359 99.6198 32.8129 99.6198 28.853V19.4102H97.6126V20.6286H97.4692ZM95.0319 27.9392C93.5982 27.9392 92.4512 26.5684 92.4512 24.7408C92.4512 22.9132 93.5982 21.5424 95.0319 21.5424C96.4656 21.5424 97.6126 22.9132 97.6126 24.7408C97.6126 26.5684 96.4656 27.9392 95.0319 27.9392Z" fill="#757575"/>
<path d="M84.5656 19.5645C81.8415 19.5645 79.6909 21.6967 79.6909 24.7428C79.6909 27.7889 81.8415 29.9211 84.5656 29.9211C87.2897 29.9211 89.4403 27.6366 89.4403 24.7428C89.5837 21.6967 87.2897 19.5645 84.5656 19.5645ZM84.5656 27.9412C83.1319 27.9412 81.8415 26.5705 81.8415 24.7428C81.8415 22.9152 83.1319 21.5444 84.5656 21.5444C85.9993 21.5444 87.2897 22.7628 87.2897 24.7428C87.2897 26.7228 85.9993 27.9412 84.5656 27.9412Z" fill="#757575"/>
<path d="M101.197 14.0781H103.348V29.9177H101.197V14.0781Z" fill="#757575"/>
<path d="M109.226 27.9412C108.079 27.9412 107.362 27.332 106.788 26.4181L113.384 23.5244L113.097 22.9152C112.667 21.6967 111.376 19.5645 108.939 19.5645C106.358 19.5645 104.351 21.6967 104.351 24.7428C104.351 27.6366 106.502 29.9211 109.226 29.9211C111.52 29.9211 112.81 28.3981 113.384 27.6366L111.663 26.4181C111.09 27.332 110.373 27.9412 109.226 27.9412ZM109.082 21.5444C109.943 21.5444 110.659 22.0013 110.946 22.7628L106.502 24.7428C106.502 22.4582 107.935 21.5444 109.082 21.5444Z" fill="#757575"/>
</svg>
